<?xml version="1.0" encoding="iso-8859-1"?>
<!-- Generator: Adobe Illustrator 19.0.0, SVG Export Plug-In . SVG Version: 6.00 Build 0)  -->
<svg version="1.1" id="Capa_1" xmlns="http://www.w3.org/2000/svg" xmlns:xlink="http://www.w3.org/1999/xlink" x="0px" y="0px"
	 viewBox="0 0 512 512" style="enable-background:new 0 0 512 512;" xml:space="preserve">
<polygon style="fill:#67C6B9;" points="390.4,0 421.333,30.933 188.8,262.4 249.6,323.2 481.067,90.667 512,121.6 512,0 "/>
<path style="fill:#435B6C;" d="M227.2,213.333H86.4v-42.667L0,256l86.4,85.333v-42.667h126.933V512h85.333V284.8
	C298.667,245.333,266.667,213.333,227.2,213.333z"/>
<g>
</g>
<g>
</g>
<g>
</g>
<g>
</g>
<g>
</g>
<g>
</g>
<g>
</g>
<g>
</g>
<g>
</g>
<g>
</g>
<g>
</g>
<g>
</g>
<g>
</g>
<g>
</g>
<g>
</g>
</svg>
