<?xml version="1.0" encoding="iso-8859-1"?>
<!-- Generator: Adobe Illustrator 19.0.0, SVG Export Plug-In . SVG Version: 6.00 Build 0)  -->
<svg version="1.1" id="Capa_1" xmlns="http://www.w3.org/2000/svg" xmlns:xlink="http://www.w3.org/1999/xlink" x="0px" y="0px"
	 viewBox="0 0 512 512" style="enable-background:new 0 0 512 512;" xml:space="preserve">
<ellipse style="fill:#FFD15D;" cx="256" cy="448" rx="256" ry="64"/>
<ellipse style="fill:#435B6C;" cx="256" cy="448" rx="82.133" ry="20.267"/>
<path style="fill:#F3705B;" d="M387.2,54.4c-72.533-72.533-189.867-72.533-262.4,0s-72.533,189.867,0,262.4L256,448l131.2-131.2
	C459.733,244.267,459.733,126.933,387.2,54.4z"/>
<path style="fill:#FFFFFF;" d="M256,73.6c-61.867,0-110.933,50.133-110.933,112S195.2,296.533,256,296.533
	S366.933,246.4,366.933,185.6C366.933,123.733,317.867,73.6,256,73.6z"/>
<g>
</g>
<g>
</g>
<g>
</g>
<g>
</g>
<g>
</g>
<g>
</g>
<g>
</g>
<g>
</g>
<g>
</g>
<g>
</g>
<g>
</g>
<g>
</g>
<g>
</g>
<g>
</g>
<g>
</g>
</svg>
