<?xml version="1.0" encoding="iso-8859-1"?>
<!-- Generator: Adobe Illustrator 19.0.0, SVG Export Plug-In . SVG Version: 6.00 Build 0)  -->
<svg version="1.1" id="Capa_1" xmlns="http://www.w3.org/2000/svg" xmlns:xlink="http://www.w3.org/1999/xlink" x="0px" y="0px"
	 viewBox="0 0 512 512" style="enable-background:new 0 0 512 512;" xml:space="preserve">
<circle style="fill:#67C6B9;" cx="256" cy="256" r="256"/>
<circle style="fill:#FFFFFF;" cx="256" cy="256" r="208"/>
<g>
	<circle style="fill:#E8EAE9;" cx="256" cy="93.867" r="18.133"/>
	<circle style="fill:#E8EAE9;" cx="93.867" cy="256" r="18.133"/>
	<circle style="fill:#E8EAE9;" cx="256" cy="418.133" r="18.133"/>
	<circle style="fill:#E8EAE9;" cx="418.133" cy="256" r="18.133"/>
</g>
<polygon style="fill:#F15741;" points="229.333,282.667 235.733,392.533 353.067,158.933 "/>
<polygon style="fill:#F3705B;" points="353.067,158.933 119.467,276.267 229.333,282.667 229.333,282.667 "/>
<g>
</g>
<g>
</g>
<g>
</g>
<g>
</g>
<g>
</g>
<g>
</g>
<g>
</g>
<g>
</g>
<g>
</g>
<g>
</g>
<g>
</g>
<g>
</g>
<g>
</g>
<g>
</g>
<g>
</g>
</svg>
