<?xml version="1.0" encoding="iso-8859-1"?>
<!-- Generator: Adobe Illustrator 19.0.0, SVG Export Plug-In . SVG Version: 6.00 Build 0)  -->
<svg version="1.1" id="Capa_1" xmlns="http://www.w3.org/2000/svg" xmlns:xlink="http://www.w3.org/1999/xlink" x="0px" y="0px"
	 viewBox="0 0 511.415 511.415" style="enable-background:new 0 0 511.415 511.415;" xml:space="preserve">
<path style="fill:#E8EAE9;" d="M508.508,351.708l-77.867-224c-7.467-20.267-28.8-28.8-48-28.8H128.774c-19.2,0-41.6,8.533-48,28.8
	l-77.867,224c-5.333,14.933-3.2,30.933,5.333,42.667c9.6,12.8,24.533,20.267,41.6,20.267h411.733c17.067,0,32-7.467,41.6-20.267
	C511.708,382.641,513.841,366.641,508.508,351.708z"/>
<path style="fill:#67C6B9;" d="M403.974,137.308l77.867,224c5.333,13.867-4.267,25.6-20.267,25.6H49.841
	c-16,0-25.6-11.733-20.267-25.6l77.867-224c2.133-5.333,11.733-10.667,21.333-10.667h253.867
	C392.241,126.641,401.841,130.908,403.974,137.308z"/>
<path style="fill:#FFFFFF;" d="M464.774,311.174l-105.6-2.133l58.667-132.267l-3.2-9.6l-46.933,102.4l-104.533-92.8l83.2-48h-35.2
	l-56.533,32l-7.467-32h-6.4l7.467,35.2l-64,35.2l-6.4-20.267l-82.133-5.333l-1.067,4.267l77.867,4.267l5.333,19.2l-114.133,64
	l-11.733,34.133l132.267-76.8l24.533,85.333l-106.667,80h13.867l99.2-75.733l132.267,3.2l-33.067,72.533h10.667l32-71.467
	l110.933,3.2L464.774,311.174z M349.574,307.974l-133.333-3.2l-25.6-86.4l68.267-39.467l106.667,96L349.574,307.974z"/>
<path style="fill:#435B6C;" d="M367.708,246.108c-17.067,0-30.933,10.667-30.933,24.533c0,14.933,16,26.667,34.133,26.667
	c19.2,0,32-12.8,30.933-26.667C399.708,256.774,384.774,246.108,367.708,246.108z"/>
<path style="fill:#354B5E;" d="M368.774,258.908c-8.533,0-13.867,5.333-13.867,11.733s7.467,11.733,16,11.733
	s14.933-5.333,13.867-11.733C383.708,264.241,376.241,258.908,368.774,258.908z"/>
<path style="fill:#F3705B;" d="M368.774,147.974c-22.4,0-39.467,18.133-39.467,39.467c0,22.4,39.467,83.2,39.467,83.2
	s39.467-60.8,39.467-83.2C409.308,166.108,391.174,147.974,368.774,147.974z"/>
<circle style="fill:#FFFFFF;" cx="368.774" cy="188.508" r="23.467"/>
<path style="fill:#435B6C;" d="M158.641,190.641c-17.067,0-30.933,10.667-30.933,24.533c0,14.933,16,26.667,34.133,26.667
	c19.2,0,32-12.8,30.933-26.667C191.708,202.374,176.774,190.641,158.641,190.641z"/>
<path style="fill:#354B5E;" d="M159.708,204.508c-8.533,0-13.867,5.333-13.867,11.733c0,6.4,7.467,11.733,16,11.733
	c8.533,0,14.933-5.333,13.867-11.733C174.641,209.841,168.241,204.508,159.708,204.508z"/>
<path style="fill:#F3705B;" d="M160.774,96.774c-21.333,0-39.467,17.067-39.467,39.467s39.467,81.067,39.467,81.067
	s39.467-59.733,39.467-81.067S182.108,96.774,160.774,96.774z"/>
<circle style="fill:#FFFFFF;" cx="160.774" cy="135.174" r="22.4"/>
<g>
</g>
<g>
</g>
<g>
</g>
<g>
</g>
<g>
</g>
<g>
</g>
<g>
</g>
<g>
</g>
<g>
</g>
<g>
</g>
<g>
</g>
<g>
</g>
<g>
</g>
<g>
</g>
<g>
</g>
</svg>
