<?xml version="1.0" encoding="iso-8859-1"?>
<!-- Generator: Adobe Illustrator 19.0.0, SVG Export Plug-In . SVG Version: 6.00 Build 0)  -->
<svg version="1.1" id="Capa_1" xmlns="http://www.w3.org/2000/svg" xmlns:xlink="http://www.w3.org/1999/xlink" x="0px" y="0px"
	 viewBox="0 0 512 512" style="enable-background:new 0 0 512 512;" xml:space="preserve">
<path style="fill:#FFD15D;" d="M480,512H32c-18.133,0-32-13.867-32-32V32C0,13.867,13.867,0,32,0h448c18.133,0,32,13.867,32,32v448
	C512,498.133,498.133,512,480,512z"/>
<path style="fill:#435B6C;" d="M512,89.6l-83.2,78.933L214.4,84.267L257.067,0H233.6L124.8,215.467C81.067,163.2,37.333,128,0,102.4
	v66.133C41.6,201.6,90.667,249.6,134.4,317.867L0,392.533v24.533L147.2,336c35.2,52.267,80,84.267,128,102.4l-8.533,73.6H288
	l7.467-66.133c38.4,11.733,76.8,16,113.067,16c39.467,0,75.733-5.333,103.467-10.667v-54.4
	c-58.667,12.8-173.867,26.667-260.267-29.867l87.467-83.2L512,358.4v-23.467l-155.733-68.267L434.133,192L512,224v-22.4
	l-60.8-23.467l60.8-58.667V89.6z M234.667,354.133c-18.133-13.867-34.133-32-48-54.4c-14.933-24.533-30.933-46.933-46.933-67.2
	L205.867,102.4L412.8,183.467L234.667,354.133z"/>
<path style="fill:#FFD15D;" d="M32,0C13.867,0,0,13.867,0,32v70.4c37.333,24.533,81.067,60.8,124.8,112L233.6,0H32z"/>
<g>
	<path style="fill:#67C6B9;" d="M147.2,336L0,417.067V480c0,17.067,13.867,32,32,32h234.667l8.533-73.6
		C227.2,420.267,181.333,388.267,147.2,336z"/>
	<path style="fill:#67C6B9;" d="M186.667,300.8c-16-24.533-32-46.933-48-67.2L204.8,103.467l206.933,81.067l-177.067,169.6
		C216.533,340.267,200.533,322.133,186.667,300.8z"/>
</g>
<path style="fill:#E8EAE9;" d="M134.4,317.867L0,392.533v-224C41.6,201.6,90.667,249.6,134.4,317.867z"/>
<path style="fill:#67C6B9;" d="M480,0H257.067L214.4,84.267l214.4,84.267L512,89.6V32C512,13.867,498.133,0,480,0z"/>
<polygon style="fill:#FFD15D;" points="434.133,193.067 512,224 512,334.933 356.267,267.733 "/>
<g>
	<path style="fill:#E8EAE9;" d="M339.2,283.733L512,358.4v38.4c-58.667,12.8-173.867,26.667-260.267-29.867L339.2,283.733z"/>
	<path style="fill:#E8EAE9;" d="M407.467,461.867c-36.267,0-74.667-4.267-113.067-16L288,512h192c18.133,0,32-14.933,32-32v-28.8
		C484.267,456.533,448,461.867,407.467,461.867z"/>
</g>
<polygon style="fill:#FFD15D;" points="451.2,177.067 512,118.4 512,200.533 "/>
<path style="fill:#F3705B;" d="M365.867,147.2c0,67.2-122.667,251.733-122.667,251.733S120.533,215.467,120.533,147.2
	c0-67.2,54.4-122.667,122.667-122.667C311.467,24.533,365.867,80,365.867,147.2z"/>
<circle style="fill:#FFFFFF;" cx="243.2" cy="147.2" r="71.467"/>
<g>
</g>
<g>
</g>
<g>
</g>
<g>
</g>
<g>
</g>
<g>
</g>
<g>
</g>
<g>
</g>
<g>
</g>
<g>
</g>
<g>
</g>
<g>
</g>
<g>
</g>
<g>
</g>
<g>
</g>
</svg>
