<?xml version="1.0" encoding="iso-8859-1"?>
<!-- Generator: Adobe Illustrator 19.0.0, SVG Export Plug-In . SVG Version: 6.00 Build 0)  -->
<svg version="1.1" id="Capa_1" xmlns="http://www.w3.org/2000/svg" xmlns:xlink="http://www.w3.org/1999/xlink" x="0px" y="0px"
	 viewBox="0 0 512 512" style="enable-background:new 0 0 512 512;" xml:space="preserve">
<circle style="fill:#8BD7F8;" cx="256" cy="302.933" r="209.067"/>
<g>
	<path style="fill:#F3F3F3;" d="M213.333,481.067c-1.067,0-3.2,0-4.267,0c-4.267,0-9.6-3.2-10.667-8.533
		c0-2.133-2.133-3.2-5.333-3.2c-1.067,0-2.133,0-3.2,0c0,0,0,0,0-1.067s1.067-1.067,1.067-2.133c1.067-3.2,1.067-5.333-2.133-7.467
		c-3.2-2.133-3.2-2.133,0-4.267c3.2-2.133,3.2-3.2,2.133-6.4c1.067,0,1.067,0,2.133-1.067c2.133-1.067,3.2-1.067,5.333-2.133
		c2.133-1.067,2.133-2.133,1.067-4.267c-1.067-2.133-2.133-3.2-4.267-3.2c-1.067,0-2.133,0-3.2,0
		c1.067-1.067,1.067-1.067,2.133-1.067c2.133-1.067,4.267-3.2,3.2-5.333c0-1.067,0-3.2-1.067-4.267c-1.067-3.2-1.067-6.4-1.067-9.6
		c0-2.133,0-4.267-1.067-5.333c0-1.067,0-2.133,1.067-3.2c1.067-1.067,2.133-1.067,2.133-2.133c4.267-3.2,6.4-6.4,5.333-11.733
		c-1.067-3.2-2.133-5.333-3.2-7.467c-2.133-3.2-2.133-7.467-1.067-10.667c0-2.133,1.067-4.267,1.067-6.4c0-3.2,0-6.4-2.133-9.6
		c-3.2-6.4-10.667-8.533-17.067-5.333c-1.067,0-1.067,1.067-2.133,1.067c-2.133,1.067-4.267,1.067-6.4,0
		c-3.2-1.067-5.333-2.133-8.533-1.067c-3.2,1.067-5.333,0-7.467-3.2c-4.267-6.4-10.667-9.6-18.133-6.4
		c-2.133,1.067-4.267,0-6.4-1.067c-2.133-2.133-3.2-3.2-5.333-3.2c-3.2-1.067-5.333-1.067-7.467,1.067
		c-1.067,1.067-2.133,2.133-3.2,3.2c-1.067,1.067-2.133,1.067-4.267,1.067c-1.067,0-2.133,0-3.2,0c-2.133,0-3.2,1.067-3.2,3.2
		c-4.267,2.133-4.267,6.4-5.333,9.6c-1.067,0-1.067,0-2.133,1.067c-1.067,1.067-3.2,2.133-5.333,2.133c-3.2,1.067-6.4,0-8.533-4.267
		c-1.067-2.133-1.067-4.267-2.133-7.467c0-1.067-1.067-1.067-1.067-1.067c-3.2,0-5.333,0-7.467,2.133
		c0,1.067-1.067,1.067-2.133,1.067L69.333,352c0-1.067,0-3.2,0-4.267c0-2.133,0-3.2-1.067-5.333c1.067,0,0-1.067-1.067-1.067
		s-2.133,1.067-2.133,2.133C64,344.533,64,345.6,64,347.733c0,2.133-2.133,4.267-4.267,5.333c-1.067,0-2.133,1.067-2.133,1.067
		c-2.133,1.067-2.133,1.067-3.2,0c1.067,3.2,2.133,7.467,3.2,10.667c1.067,0,1.067,0,2.133,0l0,0c2.133-1.067,3.2,0,4.267,1.067
		C66.133,368,67.2,368,69.333,368c3.2-1.067,5.333-1.067,8.533,0c1.067,0,2.133,0,2.133,0c4.267,1.067,7.467,1.067,11.733,1.067
		H92.8c1.067,1.067,2.133,1.067,4.267,0c1.067-1.067,2.133-2.133,3.2-3.2c-1.067,3.2,0,7.467,2.133,9.6
		c3.2,3.2,2.133,7.467,0,10.667c-1.067,2.133-1.067,4.267-1.067,6.4c1.067,5.333,4.267,10.667,9.6,12.8
		c4.267,2.133,7.467,4.267,10.667,6.4c4.267,3.2,8.533,5.333,13.867,4.267c0,0,0,0,1.067,0c3.2,0,6.4,1.067,8.533,4.267
		c0,1.067,1.067,1.067,1.067,2.133c2.133,3.2,5.333,7.467,7.467,10.667c5.333,8.533,9.6,18.133,13.867,26.667
		c3.2,5.333,6.4,9.6,8.533,14.933c0,1.067,1.067,2.133,2.133,2.133c2.133,1.067,4.267,4.267,6.4,6.4
		c1.067,2.133,3.2,4.267,7.467,3.2h1.067c2.133,1.067,4.267,1.067,6.4,1.067c2.133,0,3.2,0,5.333,1.067
		c2.133,1.067,4.267,1.067,6.4,1.067c3.2-1.067,5.333-2.133,5.333-5.333C214.4,482.133,214.4,481.067,213.333,481.067z"/>
	<path style="fill:#F3F3F3;" d="M177.067,138.667c-3.2,0-7.467,0-9.6,3.2c-1.067,1.067-1.067,1.067-2.133,0
		c-2.133-1.067-3.2-1.067-5.333,0c-2.133,1.067-3.2,1.067-5.333,2.133c-2.133,1.067-4.267,2.133-6.4,2.133l-6.4,3.2
		c-1.067,1.067-3.2,1.067-4.267,2.133c-3.2,2.133-6.4,4.267-9.6,5.333c-4.267,2.133-7.467,4.267-9.6,7.467
		c-1.067,2.133-3.2,3.2-4.267,4.267c1.067-1.067,1.067-2.133,2.133-3.2c0-1.067,0-2.133-1.067-2.133c-1.067,0-2.133,0-3.2,0
		c-2.133,1.067-5.333,2.133-7.467,3.2c-4.267,2.133-7.467,5.333-11.733,6.4c0,0-1.067,0-1.067,1.067
		C87.467,179.2,83.2,185.6,80,190.933c1.067,0,2.133,0,3.2,0c-2.133,1.067-4.267,2.133-5.333,3.2l0,0
		c-2.133,4.267-4.267,7.467-6.4,11.733c0,1.067,0,2.133,1.067,3.2c0,1.067,1.067,1.067,2.133,1.067h1.067
		c-1.067,3.2-3.2,5.333-6.4,6.4c0-1.067-1.067-2.133-2.133-3.2c-12.8,26.667-20.267,57.6-20.267,89.6c0,9.6,1.067,19.2,2.133,27.733
		c1.067-1.067,2.133-2.133,3.2-3.2c2.133-1.067,4.267-2.133,6.4-3.2c2.133-1.067,3.2-2.133,3.2-4.267s1.067-2.133,3.2-3.2
		c3.2,0,6.4-1.067,9.6-1.067c0,2.133,0,3.2,0,4.267c1.067,2.133,2.133,5.333,3.2,7.467c0,1.067,1.067,1.067,2.133,1.067
		s2.133-1.067,2.133-2.133c0-1.067,0-2.133,0-3.2c-1.067-3.2-3.2-5.333-5.333-8.533c-2.133-3.2-2.133-6.4,0-9.6
		c3.2-4.267,4.267-7.467,5.333-12.8c0-2.133,1.067-4.267,3.2-5.333c2.133-2.133,3.2-4.267,3.2-6.4c0-1.067,1.067-2.133,1.067-3.2
		c1.067-2.133,2.133-4.267,3.2-6.4c2.133-2.133,2.133-4.267,3.2-5.333c1.067-1.067,1.067-2.133,2.133-4.267c0,1.067,0,1.067,0,2.133
		c0,2.133,1.067,2.133,2.133,1.067s2.133-2.133,3.2-3.2c1.067-2.133,3.2-4.267,5.333-5.333c1.067-1.067,1.067-2.133,2.133-3.2
		c0,0,0-1.067,0-2.133h-1.067c-1.067,1.067-3.2,1.067-4.267,2.133l-1.067-2.133c2.133-1.067,3.2-1.067,3.2-3.2
		c0-2.133-1.067-1.067-3.2-2.133c3.2-2.133,6.4-3.2,9.6-5.333c-1.067,1.067-1.067,1.067-1.067,2.133
		C112,243.2,112,244.267,112,246.4c0,1.067,0,2.133,1.067,3.2c1.067,1.067,2.133,0,3.2,0c1.067-1.067,2.133-2.133,4.267-2.133
		c1.067,0,1.067,1.067,1.067,1.067c1.067,0,3.2-1.067,3.2-2.133c1.067-1.067,0-2.133,0-3.2c-1.067-1.067-2.133-2.133-4.267-3.2
		c-1.067-1.067-2.133-2.133-2.133-4.267v-1.067c-1.067-2.133-1.067-4.267-4.267-5.333c-3.2-1.067-5.333-2.133-6.4-5.333
		c0-2.133-2.133-2.133-4.267-2.133c-1.067,0-2.133,1.067-3.2,2.133c-1.067,2.133-2.133,2.133-4.267,3.2c0-1.067,0-1.067,0-2.133
		C96,224,94.933,224,94.933,224c-2.133-1.067-5.333-2.133-7.467-3.2c1.067-1.067,2.133-1.067,2.133-2.133
		c1.067-1.067,2.133-1.067,3.2,0c1.067,0,2.133,1.067,3.2,1.067c3.2,1.067,5.333,0,7.467-2.133c1.067-1.067,0-1.067-1.067-2.133
		c-1.067,0-2.133-1.067-3.2-1.067c2.133-1.067,4.267-1.067,4.267-4.267c0-2.133-1.067-3.2-3.2-4.267c1.067,0,1.067,0,2.133,0
		c4.267,0,6.4-2.133,8.533-6.4c1.067-1.067,0-2.133-1.067-2.133c-2.133,0-3.2,1.067-5.333,1.067c-1.067,0-1.067,0-2.133,1.067
		c0-1.067,0-1.067,0-2.133c0-1.067,0-1.067-1.067-1.067c-2.133,0-5.333-1.067-7.467-2.133c-1.067,0-2.133,0-3.2,0
		c-1.067,0-2.133,0-2.133-1.067c2.133,0,3.2-2.133,3.2-4.267c1.067-3.2,2.133-5.333,4.267-7.467c1.067-1.067,3.2-2.133,4.267-3.2
		c2.133-1.067,4.267-3.2,5.333-4.267l1.067,3.2c-1.067,0-1.067,0-2.133,1.067c-2.133,1.067-4.267,2.133-6.4,3.2
		c-1.067,1.067-2.133,2.133-1.067,3.2c0,1.067,2.133,2.133,3.2,1.067c2.133-1.067,4.267-1.067,6.4-2.133
		c2.133-1.067,3.2-2.133,5.333-3.2c2.133-2.133,4.267-1.067,5.333,1.067c0,1.067,1.067,1.067,1.067,2.133
		c-1.067,2.133-1.067,4.267,1.067,5.333c2.133,1.067,3.2,3.2,1.067,5.333c0,0,0,1.067-1.067,1.067
		c-1.067,2.133-1.067,4.267,1.067,6.4c1.067,1.067,1.067,2.133,2.133,3.2c1.067,1.067,1.067,2.133,1.067,3.2
		c1.067,2.133,3.2,3.2,5.333,3.2c3.2-1.067,6.4-4.267,7.467-7.467c0-2.133,0-3.2,0-5.333c0-1.067,1.067-2.133,2.133-3.2
		c3.2-1.067,5.333-3.2,7.467-5.333c3.2-4.267,6.4-8.533,10.667-11.733c2.133-2.133,4.267-4.267,6.4-6.4
		c1.067-1.067,2.133-2.133,2.133-3.2s0-3.2,0-4.267c0-2.133,0-4.267,2.133-6.4c1.067-1.067,2.133-2.133,1.067-3.2
		c-1.067-4.267,0-7.467,3.2-9.6c1.067-1.067,2.133-2.133,3.2-3.2C178.133,139.733,178.133,139.733,177.067,138.667
		C178.133,138.667,177.067,138.667,177.067,138.667z"/>
	<path style="fill:#F3F3F3;" d="M449.067,222.933c0,1.067,0,1.067,0,2.133c-3.2-3.2-8.533-4.267-11.733-1.067
		c-1.067,1.067-2.133,2.133-2.133,4.267c0,1.067,0,3.2,0,4.267c0,1.067-1.067,2.133-1.067,3.2c-1.067,1.067-3.2,2.133-3.2,4.267
		c-3.2-2.133-5.333-4.267-8.533-6.4c2.133-1.067,3.2-3.2,3.2-5.333c0-1.067,0-3.2,0-4.267c0-2.133,1.067-4.267,3.2-5.333
		c1.067,0,2.133-1.067,2.133-1.067c1.067-1.067,2.133-2.133,3.2-3.2c1.067-2.133,1.067-4.267-1.067-5.333
		c-2.133-2.133-2.133-2.133,0-4.267l1.067-1.067c1.067-1.067,2.133-2.133,3.2-2.133c-12.8-22.4-29.867-42.667-50.133-58.667
		c-1.067,3.2-2.133,5.333-4.267,7.467c-4.267,4.267-8.533,6.4-13.867,5.333c-3.2-1.067-7.467-1.067-10.667-2.133
		c-4.267-1.067-8.533-1.067-12.8,0c-2.133,1.067-4.267,0-6.4-1.067c-3.2-2.133-5.333-4.267-8.533-7.467
		c-3.2-3.2-7.467-5.333-11.733-5.333c-3.2,0-6.4,0-8.533,1.067c-6.4,1.067-11.733,1.067-18.133-1.067
		c-2.133-1.067-5.333-1.067-8.533-1.067c-2.133,0-4.267,1.067-4.267,3.2c-1.067,4.267-3.2,7.467-4.267,11.733
		c-1.067,2.133-1.067,3.2,0,5.333c1.067,6.4,3.2,11.733,9.6,16c2.133,1.067,3.2,3.2,3.2,5.333s1.067,3.2,3.2,4.267
		c1.067,0,2.133,1.067,3.2,1.067c4.267,1.067,7.467,3.2,9.6,7.467c1.067,2.133,2.133,4.267,3.2,6.4
		c2.133,5.333,5.333,8.533,10.667,9.6c2.133,0,4.267,1.067,6.4,1.067c4.267,0,7.467,2.133,9.6,5.333
		c3.2,3.2,5.333,7.467,8.533,10.667c5.333,6.4,9.6,13.867,11.733,21.333c1.067,2.133,2.133,3.2,3.2,5.333
		c1.067,1.067,2.133,2.133,4.267,1.067c2.133,0,3.2-2.133,3.2-3.2c0-1.067,0-3.2,1.067-5.333c0-1.067,1.067-2.133,1.067-3.2
		C368,246.4,368,249.6,368,253.867c0,3.2,1.067,5.333,2.133,7.467c1.067,2.133,2.133,5.333,3.2,7.467c0,1.067,1.067,2.133,1.067,3.2
		c1.067,4.267,5.333,6.4,9.6,3.2c1.067-1.067,3.2-1.067,4.267,0H387.2c-3.2,2.133-5.333,4.267-6.4,7.467
		c-1.067,2.133-1.067,4.267-1.067,6.4c0,2.133-1.067,3.2-3.2,3.2c-2.133,0-3.2,0-5.333,0c-3.2,0-4.267,1.067-4.267,4.267
		c0,0,0,1.067-1.067,1.067c-1.067,1.067-1.067,1.067-2.133,2.133c0,0,0,0-1.067,0c-4.267-2.133-8.533-2.133-12.8,0
		c-1.067,1.067-3.2,1.067-5.333,0c-3.2-1.067-6.4-2.133-9.6-3.2c-3.2-1.067-7.467,1.067-6.4,6.4c-1.067,0-2.133-1.067-3.2-1.067
		c-2.133-1.067-5.333,1.067-4.267,4.267c1.067,4.267,5.333,6.4,8.533,3.2c1.067,0,1.067-1.067,2.133-2.133l1.067,1.067
		c1.067,2.133,3.2,3.2,5.333,3.2c1.067,0,2.133,0,3.2,1.067c1.067,0,2.133,1.067,2.133,3.2c1.067,5.333,3.2,10.667,7.467,14.933
		c1.067,1.067,1.067,2.133,0,3.2c-2.133,1.067-2.133,3.2-2.133,5.333v1.067c-3.2,0-5.333-1.067-7.467-2.133
		c-1.067,0-2.133-1.067-3.2-1.067c-3.2,0-5.333,1.067-5.333,4.267c0,3.2-1.067,4.267-4.267,3.2l-1.067-1.067
		c-3.2-1.067-5.333-1.067-8.533,0c-1.067,0-2.133,1.067-3.2,1.067c-1.067,1.067-3.2,1.067-4.267,0
		c-2.133-1.067-5.333-2.133-8.533-2.133c-2.133,0-3.2,0-5.333,0c3.2-2.133,4.267-4.267,8.533-4.267c1.067,0,3.2,0,4.267-1.067
		c1.067-1.067,1.067-2.133,0-2.133c-2.133-1.067-3.2-1.067-5.333,0c-2.133,1.067-3.2,2.133-5.333,2.133c-1.067,0-2.133,0-3.2,0
		c-3.2-2.133-6.4-1.067-8.533,1.067c-1.067,1.067-2.133,1.067-4.267,1.067c-2.133,0-3.2,0-5.333,0s-4.267,0-5.333,2.133
		c-2.133,2.133-1.067,4.267,1.067,5.333c1.067,1.067,2.133,1.067,4.267,1.067c0,1.067-1.067,1.067-1.067,2.133
		c-3.2,2.133-3.2,2.133,0,3.2c-2.133,0-3.2,1.067-4.267,2.133c-1.067,3.2-3.2,5.333-5.333,7.467c0,0,0,1.067-1.067,1.067
		c-2.133,2.133-1.067,5.333,2.133,6.4c1.067,0,2.133,0,3.2,1.067c1.067,0,1.067,1.067,1.067,1.067c1.067,3.2,3.2,3.2,5.333,4.267
		c3.2,1.067,4.267,2.133,4.267,5.333c0,1.067,1.067,1.067,1.067,1.067c2.133-1.067,4.267-2.133,6.4-4.267
		c1.067-1.067,1.067-2.133,0-3.2s-2.133-3.2-4.267-4.267c-2.133-1.067-3.2-3.2-2.133-5.333c0-2.133,0-5.333-1.067-7.467
		c-1.067-3.2-3.2-4.267-6.4-4.267c2.133-1.067,3.2-3.2,4.267-4.267c0,0,0,0,0-1.067c1.067-1.067,1.067-1.067,2.133-1.067
		s3.2,1.067,4.267,2.133C288,352,289.067,352,291.2,352c1.067,0,3.2,0,5.333,0c2.133,0,4.267,0,6.4-1.067
		c1.067,0,1.067-1.067,2.133-1.067c3.2,0,6.4,1.067,9.6,1.067c1.067,0,1.067,1.067,2.133,1.067c-1.067,0-1.067,1.067-2.133,1.067
		l0,0c-2.133,0-3.2,1.067-4.267,2.133c-1.067,1.067-3.2,1.067-5.333,0c-1.067-1.067-2.133-1.067-2.133,0
		c-1.067,1.067,0,3.2,1.067,4.267c1.067,1.067,1.067,2.133,1.067,4.267c0,3.2,1.067,5.333,4.267,6.4c3.2,1.067,7.467,1.067,10.667,0
		c2.133-1.067,3.2-1.067,5.333-1.067h1.067c-1.067,1.067-2.133,1.067-3.2,2.133c-2.133,2.133-2.133,4.267,1.067,5.333
		c1.067,1.067,2.133,1.067,4.267,2.133c0,1.067-1.067,3.2-1.067,4.267c-1.067,2.133-1.067,4.267,0,7.467
		c1.067,3.2,3.2,6.4,4.267,9.6c1.067,2.133,3.2,4.267,6.4,5.333c4.267,2.133,8.533,2.133,13.867,1.067
		c2.133-1.067,4.267-1.067,7.467-2.133c1.067,0,2.133,0,2.133,0v1.067c0,1.067,0,1.067,0,2.133c1.067,0,1.067,0,2.133,0
		c1.067,0,1.067-1.067,1.067-1.067c1.067,2.133,0,3.2-2.133,4.267c-1.067,0-3.2,1.067-4.267,1.067h-1.067
		c-2.133,0-3.2,0-5.333,1.067c-3.2,1.067-4.267,4.267-2.133,6.4c1.067,1.067,2.133,2.133,3.2,3.2c0,0,1.067,0,2.133,0
		c2.133-1.067,3.2-2.133,5.333-2.133c1.067,0,2.133,0,3.2-1.067c0,0,0,0,1.067,0s2.133,1.067,2.133,2.133
		c0,1.067-1.067,3.2-1.067,4.267c-1.067,2.133,0,3.2,1.067,4.267c2.133,1.067,4.267,2.133,6.4,3.2
		c2.133,1.067,5.333,2.133,7.467,4.267c-3.2,0-6.4,1.067-9.6,1.067c-1.067,0-2.133,0-2.133,1.067s0,2.133,1.067,2.133s2.133,0,3.2,0
		h1.067c1.067,2.133,3.2,2.133,5.333,1.067c3.2-1.067,5.333-1.067,8.533-2.133c2.133-1.067,4.267-2.133,5.333-3.2
		c0,0,1.067-1.067,1.067-2.133c0-1.067-1.067-1.067-1.067-2.133c3.2-1.067,5.333-3.2,5.333-6.4c0,0,0-1.067,1.067-1.067
		s3.2-1.067,4.267-1.067c2.133,0,3.2,1.067,3.2,3.2c0,2.133-1.067,3.2-2.133,4.267c-1.067,2.133-3.2,5.333-4.267,7.467
		c0,1.067-1.067,2.133,0,2.133c0,0,0,1.067,0,2.133c0,1.067-1.067,2.133-1.067,4.267c-1.067,2.133,0,3.2,3.2,3.2h1.067
		c37.333-37.333,60.8-89.6,60.8-148.267C465.067,274.133,458.667,247.467,449.067,222.933z"/>
	<path style="fill:#F3F3F3;" d="M395.733,455.467c0-1.067,0-1.067,0-2.133c-2.133-2.133-3.2-2.133-6.4-1.067
		c-1.067,1.067-3.2,2.133-4.267,3.2c-2.133,1.067-4.267,2.133-6.4,2.133c-2.133,0-4.267,0-5.333,0s-1.067,1.067-1.067,1.067
		s1.067,1.067,1.067,2.133c3.2,2.133,7.467,3.2,11.733,4.267c0,1.067,1.067,1.067,1.067,2.133c4.267-3.2,7.467-6.4,10.667-9.6
		C395.733,456.533,395.733,456.533,395.733,455.467z"/>
	<path style="fill:#F3F3F3;" d="M433.067,221.867c0,0,0,1.067,1.067,1.067c0,0,1.067,0,1.067-1.067
		c1.067-1.067,2.133-2.133,3.2-2.133s1.067,0,2.133-1.067c1.067,2.133,3.2,1.067,4.267,1.067c1.067,0,1.067,0,2.133-1.067
		c-1.067-2.133-2.133-5.333-3.2-7.467c-2.133,1.067-3.2,3.2-4.267,5.333c0,0,0,0-1.067,1.067c0-1.067,0-2.133,1.067-3.2
		c0-1.067-1.067-1.067-2.133-1.067C436.267,214.4,433.067,219.733,433.067,221.867z"/>
	<path style="fill:#F3F3F3;" d="M283.733,276.267c2.133,0,3.2-1.067,3.2-3.2c0-1.067-1.067-2.133-2.133-3.2
		c-1.067-2.133-3.2-4.267-5.333-5.333c-1.067-1.067-2.133-3.2-2.133-5.333c0-2.133,0-3.2,0-5.333c1.067-4.267,0-8.533-3.2-11.733
		c-1.067-1.067-2.133-3.2-2.133-4.267c0-3.2-1.067-5.333-4.267-6.4c-1.067-1.067-3.2-2.133-4.267-2.133
		c-4.267-1.067-8.533-3.2-11.733-5.333c-1.067-1.067-2.133-1.067-3.2-2.133c-1.067-1.067-2.133-1.067-2.133,0
		c-1.067,2.133-1.067,4.267-1.067,7.467c0,2.133,1.067,3.2,1.067,5.333s1.067,3.2,0,5.333c0,3.2-1.067,7.467-1.067,11.733
		c-2.133,0-3.2,1.067-3.2,3.2c-2.133,3.2-5.333,5.333-9.6,5.333h-1.067c-2.133,0-3.2,1.067-4.267,3.2c-3.2,0-5.333,1.067-7.467,3.2
		c-3.2,3.2-6.4,7.467-7.467,12.8c-1.067,2.133,0,4.267,1.067,6.4c1.067,1.067,2.133,3.2,3.2,4.267c1.067,2.133,2.133,4.267,3.2,6.4
		c1.067,1.067,1.067,3.2,2.133,4.267c1.067,4.267,3.2,7.467,7.467,9.6c3.2,2.133,6.4,3.2,9.6,2.133c2.133,0,3.2-1.067,5.333-1.067
		c7.467,0,14.933,0,22.4,1.067c3.2,1.067,7.467,1.067,10.667-1.067c1.067-1.067,1.067-1.067,0-2.133l-1.067-1.067
		c-3.2-3.2-6.4-4.267-10.667-6.4c-1.067,0-1.067,0-2.133-1.067c0-1.067,0-2.133,1.067-2.133c2.133-1.067,2.133-2.133,3.2-3.2
		l1.067-1.067c1.067,0,1.067,0,2.133,0c1.067,2.133,2.133,3.2,4.267,3.2c2.133,1.067,3.2,0,5.333-1.067
		c1.067-2.133,2.133-4.267,3.2-7.467c1.067-2.133,0-3.2-1.067-5.333c-1.067-1.067-2.133-2.133-3.2-3.2
		c-1.067-1.067-1.067-1.067-2.133-2.133c0-1.067,0-1.067,1.067-1.067C281.6,275.2,282.667,275.2,283.733,276.267z"/>
</g>
<path style="fill:#F3705B;" d="M256,0c-50.133,0-90.667,40.533-90.667,90.667S256,241.067,256,241.067s90.667-100.267,90.667-150.4
	S306.133,0,256,0z"/>
<circle style="fill:#FFFFFF;" cx="256" cy="90.667" r="53.333"/>
<g>
</g>
<g>
</g>
<g>
</g>
<g>
</g>
<g>
</g>
<g>
</g>
<g>
</g>
<g>
</g>
<g>
</g>
<g>
</g>
<g>
</g>
<g>
</g>
<g>
</g>
<g>
</g>
<g>
</g>
</svg>
