<?xml version="1.0" encoding="iso-8859-1"?>
<!-- Generator: Adobe Illustrator 19.0.0, SVG Export Plug-In . SVG Version: 6.00 Build 0)  -->
<svg version="1.1" id="Capa_1" xmlns="http://www.w3.org/2000/svg" xmlns:xlink="http://www.w3.org/1999/xlink" x="0px" y="0px"
	 viewBox="0 0 512.803 512.803" style="enable-background:new 0 0 512.803 512.803;" xml:space="preserve">
<polygon style="fill:#435B6C;" points="287.335,0 166.802,0 0.402,512 452.668,512 "/>
<g>
	<polygon style="fill:#FFFFFF;" points="176.402,0 184.935,0 71.868,512 37.735,512 	"/>
	<polygon style="fill:#FFFFFF;" points="276.668,0 415.335,512 381.202,512 268.135,0 	"/>
	<polygon style="fill:#FFFFFF;" points="231.868,17.067 231.868,5.333 222.268,5.333 221.202,17.067 	"/>
	<polygon style="fill:#FFFFFF;" points="231.868,42.667 231.868,27.733 221.202,27.733 221.202,42.667 	"/>
	<polygon style="fill:#FFFFFF;" points="232.935,76.8 232.935,56.533 220.135,56.533 220.135,76.8 	"/>
	<polygon style="fill:#FFFFFF;" points="234.002,121.6 234.002,94.933 220.135,94.933 219.068,121.6 	"/>
	<polygon style="fill:#FFFFFF;" points="236.135,185.6 235.068,147.2 218.002,147.2 216.935,185.6 	"/>
	<polygon style="fill:#FFFFFF;" points="238.268,283.733 237.202,224 216.935,224 214.802,283.733 	"/>
	<polygon style="fill:#FFFFFF;" points="242.535,451.2 239.335,346.667 213.735,346.667 210.535,451.2 	"/>
</g>
<circle style="fill:#E8EAE9;" cx="372.668" cy="349.867" r="139.733"/>
<path style="fill:#F3705B;" d="M452.668,362.667l-110.933-24.533c-3.2-1.067-6.4,1.067-7.467,4.267s1.067,6.4,4.267,7.467
	l112,24.533h1.067c3.2,0,5.333-2.133,6.4-4.267C458.002,366.933,455.868,363.733,452.668,362.667z"/>
<path style="fill:#8BD7F8;" d="M372.668,260.267c-5.333,0-9.6,4.267-9.6,9.6v77.867l-35.2,35.2c-3.2,3.2-3.2,9.6,0,12.8
	c2.133,2.133,4.267,3.2,6.4,3.2c2.133,0,4.267-1.067,6.4-3.2l40.533-40.533v-85.333
	C382.268,263.467,378.002,260.267,372.668,260.267z"/>
<circle style="fill:#435B6C;" cx="372.668" cy="349.867" r="22.4"/>
<g>
	<path style="fill:#FFD15D;" d="M432.402,289.067l22.4-22.4c-45.867-44.8-119.467-44.8-164.267,1.067l-32-32
		c62.933-62.933,165.333-62.933,228.267-1.067l22.4-22.4v76.8L432.402,289.067L432.402,289.067z"/>
	<path style="fill:#FFD15D;" d="M455.868,433.067c-45.867,45.867-119.467,45.867-164.267,1.067l22.4-22.4h-76.8v76.8l22.4-22.4
		c62.933,62.933,165.333,61.867,228.267-1.067L455.868,433.067z"/>
</g>
<g>
</g>
<g>
</g>
<g>
</g>
<g>
</g>
<g>
</g>
<g>
</g>
<g>
</g>
<g>
</g>
<g>
</g>
<g>
</g>
<g>
</g>
<g>
</g>
<g>
</g>
<g>
</g>
<g>
</g>
</svg>
