<?xml version="1.0" encoding="iso-8859-1"?>
<!-- Generator: Adobe Illustrator 19.0.0, SVG Export Plug-In . SVG Version: 6.00 Build 0)  -->
<svg version="1.1" id="Capa_1" xmlns="http://www.w3.org/2000/svg" xmlns:xlink="http://www.w3.org/1999/xlink" x="0px" y="0px"
	 viewBox="0 0 512 512" style="enable-background:new 0 0 512 512;" xml:space="preserve">
<path style="fill:#E8EAE9;" d="M490.667,0H21.333C9.6,0,0,9.6,0,21.333V380.8c0,11.733,9.6,21.333,21.333,21.333h62.933V512
	L227.2,402.133h263.467c11.733,0,21.333-9.6,21.333-21.333V21.333C512,9.6,502.4,0,490.667,0z"/>
<rect x="42.667" y="42.667" style="fill:#57C0EC;" width="426.667" height="316.8"/>
<path style="fill:#354B5E;" d="M227.2,359.467h242.133v-64L403.2,229.333c-12.8-12.8-34.133-12.8-46.933,0L227.2,359.467z"/>
<path style="fill:#435B6C;" d="M193.067,204.8c-12.8-12.8-34.133-12.8-46.933,0L42.667,307.2v52.267h305.067L193.067,204.8z"/>
<path style="fill:#FFFFFF;" d="M279.467,291.2l-86.4-86.4c-12.8-12.8-34.133-12.8-46.933,0L83.2,267.733l-4.267,12.8l34.133-35.2
	l-5.333,9.6l13.867-7.467L118.4,256l26.667-22.4l7.467,10.667L163.2,230.4l19.2,28.8l9.6-28.8l53.333,46.933l-5.333-16
	L279.467,291.2z"/>
<path style="fill:#F3F3F3;" d="M469.333,295.467L403.2,229.333c-12.8-12.8-34.133-12.8-46.933,0L300.8,284.8l16-10.667
	l-18.133,24.533l41.6-39.467l-7.467,21.333l26.667-33.067V275.2l19.2-27.733V262.4l13.867-20.267l27.733,33.067l-2.133-17.067
	L469.333,295.467z"/>
<g>
	<path style="fill:#FFFFFF;" d="M148.267,82.133c-1.067,0-1.067,0-2.133,0c0-1.067,0-2.133,0-3.2c0-12.8-9.6-22.4-22.4-22.4
		c-11.733,0-21.333,8.533-22.4,20.267c-1.067,0-3.2-1.067-4.267-1.067c-10.667,0-19.2,8.533-19.2,18.133s8.533,19.2,19.2,19.2H147.2
		c8.533,0,16-7.467,16-16S156.8,82.133,148.267,82.133z"/>
	<path style="fill:#FFFFFF;" d="M282.667,161.067c-1.067,0-1.067,0-2.133,0c0-1.067,0-2.133,0-3.2c0-12.8-9.6-22.4-22.4-22.4
		c-11.733,0-21.333,8.533-22.4,20.267c-1.067,0-3.2-1.067-4.267-1.067c-10.667,0-19.2,8.533-19.2,18.133
		c0,10.667,8.533,19.2,19.2,19.2H281.6c8.533,0,16-7.467,16-16C298.667,168.533,291.2,161.067,282.667,161.067z"/>
</g>
<circle style="fill:#FFD15D;" cx="381.867" cy="122.667" r="45.867"/>
<circle style="fill:#F6B64C;" cx="381.867" cy="122.667" r="28.8"/>
<g>
</g>
<g>
</g>
<g>
</g>
<g>
</g>
<g>
</g>
<g>
</g>
<g>
</g>
<g>
</g>
<g>
</g>
<g>
</g>
<g>
</g>
<g>
</g>
<g>
</g>
<g>
</g>
<g>
</g>
</svg>
