<?xml version="1.0" encoding="iso-8859-1"?>
<!-- Generator: Adobe Illustrator 19.0.0, SVG Export Plug-In . SVG Version: 6.00 Build 0)  -->
<svg version="1.1" id="Capa_1" xmlns="http://www.w3.org/2000/svg" xmlns:xlink="http://www.w3.org/1999/xlink" x="0px" y="0px"
	 viewBox="0 0 512 512" style="enable-background:new 0 0 512 512;" xml:space="preserve">
<path style="fill:#F3705B;" d="M326.4,0C224,0,140.8,83.2,140.8,185.6S326.4,512,326.4,512S512,289.067,512,185.6S428.8,0,326.4,0z"
	/>
<circle style="fill:#E8EAE9;" cx="326.4" cy="185.6" r="107.733"/>
<path style="fill:#435B6C;" d="M0,418.133V512h305.067v-93.867C305.067,346.667,0,346.667,0,418.133z"/>
<polygon style="fill:#F6B64C;" points="116.267,297.6 116.267,403.2 152.533,512 189.867,398.933 189.867,297.6 "/>
<polyline style="fill:#FFFFFF;" points="152.533,394.667 189.867,394.667 152.533,512 115.2,397.867 "/>
<polygon style="fill:#F15741;" points="163.2,428.8 174.933,417.067 152.533,394.667 130.133,417.067 141.867,428.8 "/>
<polygon style="fill:#F3705B;" points="141.867,428.8 130.133,480 152.533,512 174.933,480 163.2,428.8 "/>
<g>
	
		<ellipse transform="matrix(-0.9841 -0.1778 0.1778 -0.9841 402.1322 606.2226)" style="fill:#FFD15D;" cx="228.228" cy="285.094" rx="14.934" ry="25.601"/>
	
		<ellipse transform="matrix(-0.1792 -0.9838 0.9838 -0.1792 -188.4326 412.5031)" style="fill:#FFD15D;" cx="77.86" cy="284.857" rx="25.6" ry="16"/>
</g>
<path style="fill:#435B6C;" d="M152.533,162.133c-48,0-86.4,30.933-85.333,82.133c1.067,50.133,39.467,94.933,85.333,94.933
	s84.267-44.8,85.333-94.933C238.933,193.067,200.533,162.133,152.533,162.133z"/>
<path style="fill:#FFD15D;" d="M228.267,253.867c-1.067-6.4-2.133-11.733-4.267-17.067c-2.133,0-5.333,0-7.467,0
	c-22.4,0-38.4-7.467-50.133-18.133c-14.933,18.133-39.467,32-73.6,32c-5.333,0-10.667,0-14.933-1.067c0,1.067,0,2.133-1.067,3.2
	c-5.333,41.6,26.667,107.733,75.733,107.733C201.6,361.6,233.6,296.533,228.267,253.867z"/>
<polygon style="fill:#F3F3F3;" points="189.867,350.933 152.533,394.667 180.267,425.6 209.067,361.6 "/>
<polygon style="fill:#354B5E;" points="233.6,372.267 199.467,356.267 152.533,512 233.6,412.8 206.933,394.667 "/>
<polygon style="fill:#F3F3F3;" points="116.267,350.933 152.533,394.667 124.8,425.6 96,361.6 "/>
<polygon style="fill:#354B5E;" points="152.533,512 106.667,356.267 72.533,372.267 98.133,394.667 72.533,412.8 "/>
<g>
</g>
<g>
</g>
<g>
</g>
<g>
</g>
<g>
</g>
<g>
</g>
<g>
</g>
<g>
</g>
<g>
</g>
<g>
</g>
<g>
</g>
<g>
</g>
<g>
</g>
<g>
</g>
<g>
</g>
</svg>
