<?xml version="1.0" encoding="iso-8859-1"?>
<!-- Generator: Adobe Illustrator 19.0.0, SVG Export Plug-In . SVG Version: 6.00 Build 0)  -->
<svg version="1.1" id="Capa_1" xmlns="http://www.w3.org/2000/svg" xmlns:xlink="http://www.w3.org/1999/xlink" x="0px" y="0px"
	 viewBox="0 0 512 512" style="enable-background:new 0 0 512 512;" xml:space="preserve">
<path style="fill:#E8EAE9;" d="M234.667,0.533c-19.2,0-34.133,14.933-34.133,34.133v404.267H268.8v-403.2
	C268.8,16.533,253.867,0.533,234.667,0.533z"/>
<path style="fill:#435B6C;" d="M356.267,469.867h-243.2c-23.467,0-41.6,19.2-41.6,41.6h326.4
	C397.867,489.067,378.667,469.867,356.267,469.867z"/>
<path style="fill:#354B5E;" d="M290.133,430.4H179.2c-10.667,0-20.267,8.533-20.267,20.267c0,11.733,8.533,20.267,20.267,20.267
	h110.933c10.667,0,20.267-8.533,20.267-20.267C310.4,438.933,301.867,430.4,290.133,430.4z"/>
<path style="fill:#8BD7F8;" d="M502.4,175.467L411.733,84.8c-6.4-6.4-16-10.667-25.6-9.6L29.867,104C12.8,105.067,0,120,0,137.067
	v122.667C0,276.8,12.8,290.667,29.867,292.8l356.267,28.8c9.6,1.067,19.2-3.2,25.6-9.6l90.667-90.667
	C515.2,208.533,515.2,188.267,502.4,175.467z"/>
<g>
</g>
<g>
</g>
<g>
</g>
<g>
</g>
<g>
</g>
<g>
</g>
<g>
</g>
<g>
</g>
<g>
</g>
<g>
</g>
<g>
</g>
<g>
</g>
<g>
</g>
<g>
</g>
<g>
</g>
</svg>
