<?xml version="1.0" encoding="iso-8859-1"?>
<!-- Generator: Adobe Illustrator 19.0.0, SVG Export Plug-In . SVG Version: 6.00 Build 0)  -->
<svg version="1.1" id="Capa_1" xmlns="http://www.w3.org/2000/svg" xmlns:xlink="http://www.w3.org/1999/xlink" x="0px" y="0px"
	 viewBox="0 0 512 512" style="enable-background:new 0 0 512 512;" xml:space="preserve">
<rect y="477.867" style="fill:#67C6B9;" width="512" height="34.133"/>
<rect x="338.133" y="40.533" style="fill:#F15741;" width="55.467" height="114.133"/>
<rect x="92.8" y="234.667" style="fill:#E8EAE9;" width="325.333" height="243.2"/>
<rect x="201.6" y="340.267" style="fill:#435B6C;" width="107.733" height="136.533"/>
<polygon style="fill:#F3705B;" points="256,0 21.333,234.667 490.667,234.667 "/>
<g>
</g>
<g>
</g>
<g>
</g>
<g>
</g>
<g>
</g>
<g>
</g>
<g>
</g>
<g>
</g>
<g>
</g>
<g>
</g>
<g>
</g>
<g>
</g>
<g>
</g>
<g>
</g>
<g>
</g>
</svg>
