<?xml version="1.0" encoding="iso-8859-1"?>
<!-- Generator: Adobe Illustrator 19.0.0, SVG Export Plug-In . SVG Version: 6.00 Build 0)  -->
<svg version="1.1" id="Capa_1" xmlns="http://www.w3.org/2000/svg" xmlns:xlink="http://www.w3.org/1999/xlink" x="0px" y="0px"
	 viewBox="0 0 512 512" style="enable-background:new 0 0 512 512;" xml:space="preserve">
<g>
	<polygon style="fill:#435B6C;" points="256,0 202.667,53.333 225.067,53.333 225.067,96 286.933,96 286.933,53.333 309.333,53.333 
			"/>
	<polygon style="fill:#435B6C;" points="286.933,458.667 286.933,416 225.067,416 225.067,458.667 202.667,458.667 256,512 
		309.333,458.667 	"/>
</g>
<g>
	<polygon style="fill:#F3705B;" points="512,256 458.667,202.667 458.667,225.067 416,225.067 416,286.933 458.667,286.933 
		458.667,309.333 	"/>
	<polygon style="fill:#F3705B;" points="96,286.933 96,225.067 53.333,225.067 53.333,202.667 0,256 53.333,309.333 53.333,286.933 
			"/>
</g>
<circle style="fill:#8BD7F8;" cx="256" cy="256" r="171.733"/>
<g>
	<path style="fill:#FFFFFF;" d="M261.333,253.867c-1.067,0-2.133,0-3.2-1.067c-2.133-1.067-3.2-2.133-3.2-4.267
		c0-3.2,1.067-4.267,2.133-5.333c1.067,0,2.133-1.067,3.2-1.067c2.133-1.067,3.2-2.133,1.067-4.267
		c-1.067-1.067-2.133-3.2-3.2-4.267c-1.067-2.133-2.133-3.2-4.267-4.267c-1.067-1.067-2.133-1.067-3.2-2.133
		c-2.133-1.067-2.133-3.2-2.133-5.333c0-1.067,1.067-2.133,1.067-3.2c0-1.067,0-2.133-1.067-2.133
		c-2.133,1.067-5.333,2.133-7.467,3.2c1.067,1.067,1.067,2.133,0,3.2C240,224,237.867,224,236.8,225.067
		c-1.067,0-1.067,1.067-1.067,1.067c-1.067,1.067-1.067,2.133-1.067,3.2c0,1.067-1.067,1.067-1.067,2.133s-1.067,1.067-2.133,1.067
		l0,0c-1.067,1.067-2.133,2.133-3.2,3.2c1.067,0,1.067,1.067,1.067,1.067l1.067,1.067l-1.067,1.067h-1.067H227.2l0,0l1.067,1.067
		c1.067,1.067,1.067,1.067,0,2.133c-1.067,0-2.133,0-3.2-1.067C224,240,222.933,240,222.933,238.933c-1.067,0-1.067-1.067,0-1.067
		c1.067,0,1.067-1.067,2.133-1.067c1.067-1.067,2.133-1.067,3.2-2.133c1.067-1.067,0-1.067-1.067-1.067c-1.067,0-3.2,0-4.267,1.067
		c-2.133,1.067-5.333,2.133-7.467,3.2c-5.333,1.067-8.533,5.333-12.8,9.6c1.067,0,2.133,0,2.133,1.067v1.067
		c-1.067,1.067-1.067,2.133,0,3.2c0,3.2-1.067,5.333-3.2,7.467c-1.067,1.067-1.067,2.133-1.067,4.267
		c0,1.067,1.067,1.067,2.133,1.067c1.067,0,2.133-1.067,2.133-2.133c1.067-1.067,1.067-1.067,2.133-2.133
		c1.067-1.067,3.2-1.067,4.267,1.067c0,1.067,1.067,1.067,1.067,2.133c0,1.067,1.067,1.067,1.067,1.067
		c1.067,0,1.067-1.067,1.067-2.133c0-3.2-1.067-5.333-3.2-7.467c-1.067-1.067-1.067-2.133-1.067-2.133
		c1.067-2.133,1.067-3.2,1.067-5.333c0-1.067,1.067-2.133,2.133-2.133c1.067,0,1.067,1.067,1.067,2.133c0,1.067,0,2.133,0,3.2v1.067
		c1.067,2.133,2.133,2.133,3.2,0l0,0c1.067-1.067,1.067-2.133,3.2-2.133c1.067,0,2.133,0,3.2,1.067c0,1.067,0,2.133-1.067,3.2
		c0,0,0,0-1.067,0c-1.067,0-2.133,1.067-3.2,1.067c0,0,0,0-1.067,1.067l0,0h1.067c1.067-1.067,2.133,0,3.2,1.067
		c0,0,1.067,1.067,0,1.067c0,0-1.067,1.067-2.133,0c-1.067,0-1.067-1.067-2.133-1.067c0,1.067,1.067,2.133,1.067,3.2
		c1.067,0,1.067,1.067,1.067,2.133l-1.067,1.067c-1.067,1.067-3.2,2.133-4.267,3.2c-1.067,0-1.067,1.067-2.133,1.067
		c-1.067,0-2.133,1.067-2.133,2.133c0,0,0,1.067-1.067,1.067c-1.067,1.067-1.067,1.067-2.133,0c-1.067,0-1.067-1.067-1.067-2.133
		c0,0,0,0,0-1.067c-2.133,0-2.133-1.067-3.2-2.133c-1.067,1.067-1.067,1.067,0,2.133s1.067,2.133,2.133,3.2
		c1.067,1.067,1.067,1.067,1.067,3.2l-1.067,1.067c0,1.067-1.067,1.067-1.067,2.133c0,2.133-1.067,4.267-2.133,5.333
		c0,1.067-1.067,1.067,0,2.133c0,1.067,0,1.067-1.067,1.067c-1.067,0-1.067,0-2.133,0c1.067,1.067,0,1.067,0,2.133l-1.067,1.067l0,0
		c1.067,0,1.067,0,2.133,0s2.133,0,3.2,1.067c1.067,1.067,1.067,2.133,2.133,3.2c1.067,1.067,0,2.133-1.067,2.133
		s-1.067,0-2.133,1.067c-2.133,1.067-3.2,1.067-5.333,2.133c1.067,3.2,3.2,6.4,4.267,9.6l0,0c1.067-1.067,1.067-2.133,2.133-2.133
		c1.067-1.067,2.133-2.133,3.2-1.067c1.067,0,1.067,0,2.133-1.067c1.067-1.067,1.067-3.2,1.067-5.333c0-1.067,0-1.067,0-2.133
		c0-1.067,0-3.2,1.067-4.267c0-1.067,1.067-1.067,1.067-2.133c0-1.067,0-1.067,1.067-1.067c0,0,1.067,0,1.067-1.067
		c1.067,0,1.067-1.067,1.067-2.133c0-1.067,0-2.133,1.067-2.133c0-1.067,1.067-1.067,2.133-1.067c-1.067-2.133,0-3.2,2.133-3.2
		c1.067,0,2.133,0,2.133,0c1.067,0,2.133,0,2.133,0c2.133,0,3.2,0,4.267,1.067c0,0,1.067,0,1.067,1.067l1.067,1.067
		c0,2.133,1.067,2.133,2.133,3.2c2.133,0,3.2,0,5.333,0c0,0,1.067,0,1.067-1.067s0-1.067-1.067-1.067
		c-1.067,0-2.133-1.067-3.2-1.067c-1.067-1.067-1.067-2.133-1.067-3.2c1.067-1.067,1.067-1.067,2.133-2.133
		c2.133-2.133,2.133-4.267,1.067-6.4c-1.067-2.133-1.067-3.2,1.067-3.2c1.067,0,2.133-1.067,3.2,0c1.067,0,1.067,0,2.133,1.067
		c1.067,0,1.067,0,1.067-1.067c0-1.067,1.067-2.133,2.133-2.133c1.067,0,2.133,0,3.2,0c1.067,0,2.133,0,2.133-1.067
		c1.067,0,2.133-1.067,3.2-2.133c1.067-1.067,3.2-1.067,4.267-1.067C261.333,257.067,261.333,256,261.333,253.867z"/>
	<path style="fill:#FFFFFF;" d="M401.067,295.467c-1.067-2.133-2.133-3.2-3.2-4.267c-5.333-2.133-9.6-5.333-12.8-8.533
		c-2.133-2.133-3.2-3.2-5.333-5.333c-1.067-1.067-2.133-1.067-3.2-1.067c1.067,3.2,2.133,5.333,5.333,7.467
		c1.067,1.067,1.067,1.067,0,2.133c-1.067,1.067-1.067,1.067-2.133,2.133c0,1.067-1.067,1.067-1.067,0H377.6
		c-1.067,0-1.067,1.067-2.133,1.067c-1.067,0-2.133-1.067-3.2-1.067c-1.067-1.067,0-1.067-1.067-2.133c0-2.133-1.067-3.2-3.2-2.133
		c-1.067,0-2.133,1.067-3.2,1.067c-2.133,0-2.133,1.067-2.133,2.133c0,1.067,0,3.2,0,4.267c0,1.067,0,2.133-1.067,2.133
		s-2.133,0-2.133-1.067L358.4,291.2l0,0c0,1.067,0,1.067,0,2.133c0,2.133,0,3.2,1.067,5.333c0,2.133,0,4.267-1.067,5.333
		c-1.067,1.067-2.133,2.133-2.133,3.2c-1.067,2.133-2.133,3.2-2.133,5.333c0,2.133,0,3.2-1.067,4.267
		c-1.067,1.067-1.067,3.2,0,5.333c0,1.067,1.067,1.067,1.067,2.133c2.133,3.2,4.267,6.4,5.333,9.6c0,0,1.067,0,1.067-1.067
		c1.067-1.067,1.067-2.133,2.133-3.2c1.067-2.133,2.133-5.333,4.267-6.4c1.067-1.067,2.133-2.133,3.2-3.2s1.067-1.067,2.133-1.067
		h1.067c1.067,0,1.067,0,2.133,0c2.133,0,4.267,0,5.333,1.067c1.067,0,2.133,1.067,3.2,1.067h1.067c1.067-1.067,1.067-1.067,2.133,0
		c1.067,1.067,2.133,1.067,4.267,1.067c3.2,0,6.4-1.067,8.533-3.2c1.067-1.067,2.133-2.133,2.133-3.2v-1.067
		c-1.067-3.2,0-7.467,1.067-10.667C402.133,299.733,402.133,297.6,401.067,295.467z"/>
	<path style="fill:#FFFFFF;" d="M317.867,373.333c-1.067-1.067-1.067-3.2,0-4.267c1.067-1.067,1.067-2.133,0-4.267l-1.067-1.067
		c-2.133-2.133-3.2-5.333-2.133-7.467c0-2.133,0-3.2,1.067-5.333c1.067-4.267,0-7.467-4.267-10.667
		c-1.067-1.067-2.133-2.133-3.2-3.2c-2.133-2.133-2.133-5.333-2.133-7.467c0-4.267,0-7.467-1.067-11.733
		c0-4.267,0-8.533,1.067-11.733c0-1.067,0-3.2,1.067-4.267c0-1.067,0-1.067-1.067-2.133c-1.067,0-1.067,0-2.133,0
		c-1.067,1.067-1.067,1.067-2.133,2.133c-2.133,2.133-5.333,3.2-8.533,2.133c-1.067,0-3.2-1.067-4.267-2.133
		c-3.2-2.133-5.333-3.2-8.533-3.2c-2.133,0-3.2-1.067-4.267-2.133c-2.133-1.067-4.267-2.133-7.467-3.2
		c-1.067,0-2.133-1.067-3.2-2.133l-1.067-1.067c1.067-2.133,1.067-2.133-1.067-3.2l0,0c-2.133-1.067-3.2-1.067-4.267,0
		c-1.067,1.067-2.133,2.133-2.133,2.133c-1.067,1.067-3.2,2.133-5.333,2.133c-1.067,0-2.133,0-3.2,0
		c-2.133,0-2.133,1.067-1.067,2.133s0,2.133-1.067,3.2h-1.067c-1.067,0-2.133,0-3.2,0c-1.067,0-1.067,0-2.133,0
		s-2.133,1.067-3.2,1.067c-2.133,1.067-4.267,0-5.333-3.2c-1.067-2.133-1.067-2.133-3.2-1.067c-1.067,0-1.067,1.067-2.133,1.067
		c-2.133,1.067-3.2,3.2-5.333,4.267c-2.133,2.133-3.2,4.267-5.333,5.333c-1.067,1.067-2.133,1.067-3.2,1.067
		c0,1.067-1.067,2.133-1.067,2.133c-1.067,1.067-1.067,3.2,0,4.267c0,1.067,1.067,2.133,1.067,2.133c1.067,3.2,1.067,6.4,0,9.6
		c-1.067,2.133-1.067,3.2-1.067,5.333c-1.067,2.133,0,5.333,2.133,7.467c4.267,4.267,7.467,8.533,11.733,12.8
		c2.133,2.133,4.267,4.267,7.467,5.333c3.2,1.067,6.4,0,8.533-2.133c1.067-1.067,2.133-2.133,2.133-3.2
		c2.133-3.2,5.333-5.333,10.667-6.4c4.267-1.067,8.533,0,11.733,3.2c2.133,2.133,4.267,4.267,6.4,6.4
		c2.133,2.133,4.267,4.267,7.467,4.267c2.133,0,3.2,2.133,4.267,3.2c1.067,3.2,2.133,5.333,2.133,8.533
		c1.067,3.2,2.133,5.333,4.267,7.467c2.133,1.067,4.267,3.2,6.4,4.267c3.2,2.133,6.4,4.267,8.533,6.4
		c1.067,1.067,2.133,2.133,4.267,4.267c1.067,1.067,3.2,1.067,4.267,0c2.133-1.067,3.2-2.133,5.333-3.2
		c1.067-1.067,2.133-2.133,2.133-3.2C318.933,381.867,320,377.6,317.867,373.333z"/>
	<path style="fill:#FFFFFF;" d="M377.6,256c0-1.067-1.067-1.067-1.067-2.133c-2.133-2.133-4.267-3.2-6.4-3.2
		c-1.067-1.067-3.2-1.067-4.267-2.133c-2.133,0-3.2-1.067-3.2-3.2c0-1.067,1.067-2.133,2.133-3.2c1.067,0,2.133,0,2.133,1.067
		c0,1.067,0,2.133,0,3.2H368c1.067,0,1.067,0,1.067-2.133c0-1.067-1.067-2.133-1.067-2.133c0-1.067,0-1.067,0-1.067
		c1.067-1.067,2.133-1.067,3.2-2.133c1.067-1.067,1.067-1.067,2.133-2.133c1.067-2.133,1.067-5.333,1.067-8.533
		c0-1.067,0-2.133-1.067-3.2c-2.133-3.2-4.267-4.267-7.467-5.333c-1.067,0-3.2-1.067-4.267-2.133c-1.067,0-2.133-1.067-2.133-2.133
		H358.4c-1.067,0-2.133,1.067-3.2,1.067s-1.067,0-2.133-1.067c0-1.067,0-1.067,0-2.133s1.067-2.133,2.133-2.133
		c1.067,0,1.067,0,1.067,0c0,1.067,1.067,1.067,2.133,1.067c0-1.067,0-1.067,1.067-1.067c1.067-1.067,3.2-1.067,4.267-1.067
		c1.067,0,1.067,1.067,2.133,1.067c0,0,1.067,0,2.133,1.067c1.067,1.067,2.133,1.067,3.2,2.133c1.067,0,2.133,0,2.133-1.067
		s0-2.133,0-3.2l0,0c-1.067-1.067-3.2-1.067-4.267-2.133H368c-1.067,0-2.133-1.067-3.2-2.133c0-1.067,0-2.133,1.067-3.2
		c1.067-1.067,1.067-1.067,2.133-2.133c1.067,0,1.067-1.067,1.067-2.133c-2.133-3.2-3.2-6.4-5.333-9.6
		c-1.067-1.067-2.133-1.067-2.133-2.133c0,0-1.067,0-2.133-1.067l0,0c-1.067,1.067-1.067,1.067-3.2,0
		c-1.067-1.067-2.133-1.067-3.2,0L352,186.667l-1.067,1.067c-2.133-1.067-3.2-1.067-5.333-2.133
		c-2.133-1.067-2.133-2.133-1.067-4.267c1.067-2.133,2.133-2.133,4.267-3.2c1.067-1.067,3.2-1.067,4.267-2.133
		c0,0,1.067,0,1.067-1.067s1.067-2.133,2.133-2.133c1.067,0,1.067-1.067,2.133-1.067c0,0,0,0-1.067-1.067
		c-1.067,0-1.067-1.067-2.133-1.067c-1.067,0-1.067-1.067-1.067-1.067c0-1.067,1.067-2.133,3.2-1.067c1.067,0,1.067,0,2.133,0
		c-1.067-1.067-1.067-2.133,0-3.2c1.067-1.067,2.133-1.067,3.2,0c1.067,1.067,2.133,1.067,3.2,2.133c1.067,1.067,1.067,3.2,0,4.267
		v1.067l1.067,1.067c1.067,0,2.133,0,3.2,0c2.133,0,4.267,1.067,5.333,2.133l1.067,1.067l0,0c-1.067-1.067-2.133-3.2-4.267-4.267
		c0,0-1.067-1.067-1.067-2.133s0-1.067,0-1.067c-1.067,0-2.133-1.067-3.2-1.067s-1.067,0-2.133-1.067
		c-2.133-1.067-1.067-2.133,0-3.2h1.067c0,0,0,0,0-1.067c0-1.067,0-1.067,1.067-1.067c0,0,1.067,0,1.067-1.067
		c0-1.067,1.067-2.133,1.067-3.2h-1.067c-1.067-1.067-2.133-1.067-3.2-2.133c0-1.067,0-1.067,0-1.067
		c1.067,0,1.067-1.067,2.133-1.067l0,0c-7.467,2.133-14.933,3.2-21.333,8.533c0,0,0,0,1.067,0l1.067,1.067l-1.067,1.067
		c0,0-1.067,0-2.133,0l-1.067-1.067c-1.067,0-1.067,1.067-2.133,1.067c-2.133,2.133-5.333,4.267-9.6,4.267
		c-1.067,0-2.133,0-2.133,1.067c-2.133,1.067-5.333,2.133-7.467,2.133s-3.2,1.067-4.267,2.133c-2.133,1.067-3.2,3.2-5.333,4.267
		c1.067,1.067,0,2.133-1.067,3.2l-1.067,1.067c-1.067,0-2.133,1.067-3.2,0c-1.067,0-1.067,1.067-3.2,2.133H304h-1.067
		c-3.2,0-5.333,1.067-7.467,2.133c-2.133,2.133-4.267,3.2-7.467,4.267c-1.067,0-2.133,1.067-3.2,2.133
		c-1.067,1.067-2.133,1.067-3.2,2.133h-1.067v-1.067c0-1.067,1.067-2.133,1.067-4.267c-1.067,0-2.133,0-2.133,0
		c-4.267,1.067-7.467,4.267-11.733,6.4l0,0c0,2.133,0,3.2-2.133,3.2c-3.2,1.067-4.267,4.267-5.333,6.4c0,0,0,0,1.067,1.067
		c1.067,1.067,1.067,2.133,0,2.133c-1.067,0-1.067,0-2.133,1.067c-1.067,0-2.133,0-2.133,1.067c1.067,1.067,1.067,1.067,0,2.133
		c0,0,0,0-1.067,0c0,0,0,0,0,1.067c0,0,0,0,1.067,0h1.067c2.133,0,4.267,1.067,5.333,2.133c1.067,1.067,0,2.133,0,3.2
		c-2.133,1.067-3.2,1.067-4.267-1.067c-1.067-1.067-1.067-2.133-1.067-2.133l-1.067-1.067c0,0,0-1.067-1.067-1.067
		c0-1.067-1.067-1.067-2.133-1.067c0,0-1.067,0-1.067,1.067v1.067c1.067,1.067,1.067,2.133,2.133,2.133
		C256,217.6,256,217.6,256,218.667c0,2.133,0,3.2-1.067,4.267c0,2.133,0,3.2,2.133,4.267h1.067c2.133,1.067,3.2,2.133,4.267,3.2
		c2.133,3.2,3.2,6.4,6.4,9.6c2.133,2.133,0,5.333-2.133,5.333c-1.067,0-1.067,0-2.133,0c-1.067,0-2.133,1.067-3.2,2.133v1.067
		c1.067,1.067,2.133,2.133,3.2,2.133c2.133,0,3.2,1.067,3.2,3.2c0,1.067,0,2.133,1.067,2.133l1.067,1.067
		c1.067,1.067,1.067,1.067,0,1.067s-2.133,0-2.133,1.067c-2.133,1.067-4.267,1.067-6.4,2.133c0,0,0,0,1.067,1.067
		s1.067,2.133,0,4.267c-1.067,0-1.067,1.067-2.133,1.067c-1.067,1.067-3.2,1.067-4.267,1.067c-2.133,0-3.2,1.067-4.267,3.2
		c0,1.067-1.067,2.133-3.2,2.133c-1.067,0-1.067,1.067-1.067,2.133c2.133,3.2,5.333,3.2,7.467,1.067l0,0
		c1.067-1.067,2.133-2.133,4.267-2.133c1.067,0,1.067,0,1.067-1.067s1.067-1.067,1.067,0l1.067,1.067
		c1.067,2.133,2.133,4.267,3.2,6.4c0,1.067,1.067,2.133,2.133,2.133c3.2,1.067,5.333,3.2,8.533,4.267
		c1.067,1.067,2.133,1.067,3.2,2.133c3.2,2.133,6.4,4.267,9.6,4.267c2.133,1.067,3.2,2.133,5.333,3.2l1.067,1.067
		c1.067,1.067,2.133,1.067,2.133,0c1.067,0,1.067-1.067,1.067-1.067c1.067-2.133,3.2-5.333,4.267-8.533V288
		c1.067-3.2,1.067-5.333,2.133-8.533c0,0,0,0,0-1.067c0-2.133-1.067-3.2-3.2-3.2c-2.133,0-3.2-1.067-4.267-2.133L296.533,272
		c0,1.067-1.067,2.133-1.067,3.2s-1.067,2.133-2.133,3.2c-1.067,0-1.067,0-1.067,0l-1.067-1.067c-1.067,0-1.067-1.067-2.133,0
		c0,1.067-1.067,1.067-1.067,0c-1.067-1.067-2.133-1.067-3.2-2.133s-2.133-2.133-1.067-3.2c0-1.067,1.067-1.067,3.2-1.067
		c1.067,0,2.133,1.067,4.267,1.067c1.067,0,2.133,0,3.2,0c1.067-1.067,2.133-1.067,3.2-1.067s2.133,1.067,3.2,1.067
		c2.133,0,3.2,0,5.333-1.067c1.067-1.067,2.133-2.133,3.2-3.2c2.133-2.133,3.2-2.133,5.333-1.067c1.067,0,1.067,1.067,2.133,1.067
		c1.067,1.067,2.133,1.067,3.2-1.067l0,0c0-1.067,1.067-1.067,1.067,0c0,0,0,0,1.067,1.067c0,0,0,0,0-1.067s1.067-1.067,2.133,0
		l1.067,1.067c1.067,2.133,3.2,4.267,6.4,4.267c2.133,0,3.2,1.067,4.267,3.2c1.067,1.067,2.133,3.2,3.2,4.267
		c1.067,1.067,2.133,1.067,3.2,2.133c1.067,0,2.133-1.067,2.133-2.133V278.4c1.067-2.133,0-3.2-1.067-4.267l-1.067-1.067
		c-2.133-2.133-2.133-3.2-1.067-5.333c0-1.067,1.067-2.133,1.067-3.2c0-2.133,1.067-4.267,0-6.4v-1.067
		c0-1.067,1.067-2.133,2.133-2.133c1.067,0,3.2-1.067,4.267-2.133c1.067-1.067,1.067-1.067,2.133,0
		c1.067,1.067,3.2,2.133,4.267,4.267c0,1.067,1.067,1.067,1.067,1.067c1.067,1.067,2.133,1.067,2.133,0
		c1.067-1.067,2.133-1.067,3.2-2.133c1.067,0,2.133,0,2.133,1.067s1.067,1.067,1.067,2.133c1.067,2.133,3.2,3.2,6.4,3.2
		l-1.067-1.067c-1.067-1.067-1.067-2.133-1.067-3.2c1.067-1.067,2.133-1.067,3.2-1.067l0,0c1.067,1.067,3.2,1.067,4.267,1.067
		c1.067,0,2.133,1.067,3.2,1.067c0-2.133,0-3.2,1.067-4.267C377.6,258.133,377.6,257.067,377.6,256z"/>
	<path style="fill:#FFFFFF;" d="M263.467,125.867c-2.133,1.067-4.267,1.067-6.4-1.067c-1.067-1.067-2.133-1.067-3.2-1.067
		c-5.333,0-9.6-1.067-14.933-1.067c-7.467,0-14.933,1.067-21.333,2.133c-5.333,1.067-9.6,1.067-13.867,4.267
		c-3.2,2.133-6.4,2.133-10.667,2.133c-1.067,0-2.133,0-2.133,0s1.067,0,1.067,1.067c1.067,0,1.067,1.067,1.067,1.067
		c0,1.067-1.067,2.133-1.067,2.133c-1.067,1.067-2.133,1.067-4.267,1.067c-2.133,0-4.267,0-6.4,0c-1.067,0-3.2,0-4.267,0v1.067
		c1.067,0,1.067,1.067,2.133,1.067c2.133,0,4.267,0,6.4,0c3.2,0,5.333-1.067,8.533-1.067c1.067,0,2.133,0,2.133,1.067
		c2.133,2.133,2.133,4.267,2.133,7.467c0,1.067,0,1.067,0,2.133c0,1.067,0,1.067-1.067,2.133c0,0-1.067,0-1.067,1.067
		c0,0,0,1.067,1.067,1.067c1.067,0,1.067,1.067,1.067,2.133c0,0,0,1.067,0,2.133c0,2.133,0,3.2-2.133,4.267
		c-1.067,0-1.067,1.067-2.133,1.067C192,160,192,160,192,162.133s1.067,3.2,1.067,5.333c0,1.067,0,2.133,0,3.2
		c0,2.133,2.133,3.2,3.2,3.2c3.2,0,5.333-1.067,6.4-4.267c1.067-2.133,1.067-3.2,2.133-5.333c1.067-2.133,3.2-4.267,5.333-3.2
		c3.2,0,6.4,0,8.533-2.133c5.333-2.133,10.667-5.333,14.933-7.467c3.2-1.067,6.4-3.2,9.6-3.2c2.133,0,3.2-1.067,4.267-3.2
		c0-1.067,1.067-1.067,1.067-2.133c1.067-3.2,3.2-5.333,6.4-6.4l1.067-1.067c1.067-3.2,2.133-6.4,5.333-8.533
		c1.067-1.067,3.2-2.133,4.267-2.133C265.6,124.8,264.533,124.8,263.467,125.867z"/>
	<path style="fill:#FFFFFF;" d="M171.733,185.6c0-1.067-1.067-2.133-2.133-2.133c-1.067-1.067-1.067-1.067-1.067-2.133
		c0-1.067,0-1.067,0-2.133c0-1.067,0-1.067-1.067-2.133c-1.067,2.133-3.2,2.133-5.333,2.133c-1.067,0-1.067,0-1.067-2.133V176
		c-1.067-1.067-2.133-2.133-2.133-3.2c-2.133-2.133-4.267-2.133-5.333,1.067c0,1.067,0,1.067-1.067,2.133
		c0,1.067-1.067,1.067-1.067,1.067c-1.067,0-1.067,1.067-1.067,2.133s0,2.133-1.067,3.2c-1.067,1.067-1.067,1.067-2.133,1.067
		c-2.133,1.067-2.133,1.067-2.133,2.133c0,1.067-1.067,2.133-2.133,3.2c-1.067,1.067-2.133,1.067-3.2,1.067
		c-2.133,0-2.133,0-2.133-2.133s1.067-3.2,2.133-5.333c-1.067,0-1.067,0-2.133,0s-1.067,0-1.067-1.067
		c0-1.067-1.067-2.133-2.133-2.133c-1.067,0-2.133,0-2.133-1.067l0,0c-1.067-1.067-1.067-1.067-1.067-2.133
		c0-1.067,1.067-2.133,2.133-3.2c1.067,0,1.067-1.067,2.133-2.133c2.133-3.2,5.333-5.333,9.6-5.333c1.067,0,2.133,0,2.133-1.067
		h1.067v1.067v1.067c0,1.067,0,1.067,1.067,1.067c1.067,0,2.133,0,2.133-1.067c-1.067-1.067-2.133-2.133-2.133-2.133l0,0
		c-1.067,0-1.067-1.067-1.067-1.067v-1.067c0-1.067,0-1.067-1.067-1.067c-1.067,0-1.067-1.067-1.067-2.133v-1.067l0,0
		c-1.067,0-1.067,1.067-2.133,1.067V160c0,1.067,0,2.133-2.133,3.2H140.8l-1.067-1.067c-1.067,1.067-2.133,2.133-3.2,1.067
		c-1.067-1.067-2.133,0-3.2,0h-1.067c-1.067,0-1.067-1.067-1.067-2.133c1.067-1.067,2.133-1.067,3.2-1.067
		c1.067,0,2.133-1.067,2.133-2.133s0-1.067,0-2.133h-1.067c-1.067,1.067-1.067,1.067-2.133,1.067s-1.067-1.067-2.133-1.067
		s-1.067,0-1.067,0s-1.067,1.067-2.133,0c-1.067-1.067-2.133-1.067-3.2-1.067c-2.133,0-4.267,0-5.333,0
		c-1.067,0-2.133,1.067-2.133,2.133c1.067,0,2.133-1.067,2.133-1.067c1.067,0,2.133,0,3.2,1.067s2.133,1.067,3.2,1.067
		c0,0,0,0,1.067,0c1.067,0,2.133,0,2.133,1.067c0,1.067,0,2.133,0,2.133s0,0-1.067,0c-1.067,0-2.133,1.067-3.2,1.067
		c-3.2,1.067-6.4,0-7.467-3.2c-1.067,0-2.133,0-3.2,0c-1.067,0-1.067,0-2.133,0c-13.867,21.333-22.4,44.8-26.667,70.4L86.4,230.4
		c1.067,1.067,2.133,3.2,2.133,4.267c0,1.067,0,3.2,0,4.267c0,1.067,0,2.133,1.067,2.133c1.067,0,1.067,1.067,2.133,1.067
		c2.133,1.067,5.333,1.067,7.467,2.133h1.067c2.133,0,3.2,1.067,3.2,3.2c0,1.067,1.067,1.067,1.067,1.067c3.2,0,5.333,1.067,6.4,3.2
		c1.067,0,1.067,1.067,2.133,1.067s1.067,1.067,2.133,1.067c-1.067-2.133-1.067-4.267-1.067-5.333c0-1.067,0-1.067,0-2.133
		c0-1.067,0-2.133-1.067-2.133H112c-1.067,0-2.133,1.067-2.133,0c-1.067-1.067-2.133-2.133-1.067-3.2c0-1.067,1.067-2.133,2.133-3.2
		c0-1.067,0-1.067,0-2.133c-1.067,1.067-2.133,2.133-2.133,3.2c0,5.333-2.133,6.4-4.267,6.4c-1.067,0-2.133,0-3.2,0
		s-1.067,0-1.067,0c-1.067-1.067-1.067-1.067-1.067-2.133c0-2.133-1.067-5.333-1.067-7.467c0-4.267,3.2-8.533,7.467-9.6
		c1.067,0,3.2,0,4.267,0s2.133,0,3.2-1.067c1.067-1.067,3.2-2.133,4.267-1.067c0,0,1.067,0,1.067,1.067
		c1.067,1.067,3.2,1.067,4.267,1.067c0-3.2,1.067-4.267,3.2-5.333c2.133-1.067,4.267-3.2,6.4-6.4c1.067-1.067,2.133-2.133,4.267-3.2
		c1.067,0,2.133-1.067,3.2-2.133c1.067-1.067,1.067-2.133,2.133-2.133c2.133-1.067,3.2-2.133,5.333-4.267
		c1.067-1.067,2.133-2.133,3.2-3.2c1.067,0,1.067-1.067,2.133-1.067s2.133,0,1.067,1.067v1.067c2.133-1.067,3.2-2.133,5.333-2.133
		c0,0,0,0-1.067,0s-1.067,0-2.133-1.067c0-1.067,0-1.067,0-2.133c-1.067,0-1.067,0-2.133,0s-1.067-1.067-1.067-1.067
		c0-1.067,1.067-1.067,1.067-1.067c1.067,0,3.2-1.067,4.267-1.067s2.133,0,3.2,0c1.067,0,2.133,0,3.2,0
		C170.667,188.8,171.733,186.667,171.733,185.6z"/>
	<path style="fill:#FFFFFF;" d="M178.133,280.533c-1.067,0-1.067,0-2.133,0c-2.133,0-4.267-1.067-5.333-2.133
		s-2.133-2.133-4.267-3.2c-1.067,0-1.067,0-2.133-1.067c-2.133-1.067-2.133-2.133-3.2-4.267V268.8c0-3.2-2.133-6.4-6.4-6.4
		c-1.067,0-2.133,0-2.133,0c-1.067,0-2.133,0-2.133-1.067c-1.067-1.067-1.067-1.067-2.133-2.133s-1.067-2.133-2.133-3.2
		s-2.133-2.133-4.267-1.067c-1.067,0-1.067,1.067-2.133,1.067c-1.067,1.067-3.2,1.067-4.267,0l-1.067-1.067
		c-1.067,0-2.133,0-2.133,1.067s-1.067,1.067-1.067,1.067c-1.067,0-1.067,0-2.133,1.067s-1.067,1.067-2.133,2.133
		c-1.067,1.067-1.067,2.133-2.133,3.2c-2.133,2.133-2.133,4.267-1.067,7.467c0,2.133,0,3.2-1.067,4.267
		c-1.067,1.067-2.133,1.067-2.133,2.133c-1.067,1.067-1.067,2.133-2.133,3.2c0,3.2,0,6.4,2.133,8.533
		c2.133,2.133,3.2,4.267,5.333,7.467c0,1.067,1.067,1.067,1.067,2.133c1.067,2.133,3.2,3.2,5.333,4.267
		c1.067,0,1.067,1.067,2.133,1.067c2.133,1.067,3.2,3.2,4.267,5.333c0,2.133,1.067,4.267,1.067,6.4c0,5.333,1.067,9.6,1.067,14.933
		c0,3.2,0,6.4,1.067,9.6c0,4.267,1.067,7.467,1.067,11.733c0,1.067,0,1.067,1.067,2.133c1.067,1.067,1.067,2.133,1.067,4.267
		c0,1.067,0,2.133,1.067,3.2l1.067,1.067c1.067,0,1.067,0,2.133,1.067c1.067,1.067,2.133,2.133,3.2,2.133
		c2.133,0,3.2,1.067,4.267,2.133c1.067,1.067,2.133,1.067,3.2,2.133c1.067,0,2.133,0,2.133-1.067c-1.067,0-1.067-1.067-2.133-1.067
		c-2.133-1.067-4.267-3.2-5.333-6.4c0-1.067,0-2.133,0-4.267c0-1.067,0-1.067-1.067-1.067c0,0,0,0-1.067,0
		c-2.133-1.067-2.133-3.2-1.067-4.267c0,0,0,0,1.067-1.067s1.067-1.067,0-2.133c0-1.067-1.067-1.067-1.067-2.133
		c-1.067-1.067,0-3.2,1.067-3.2s1.067,0,2.133-1.067c1.067,0,1.067,0,1.067-1.067c0,0,0-1.067,1.067-1.067c1.067,0,2.133,0,2.133,0
		c1.067,0,2.133,0,3.2,0c0,0,1.067,0,1.067-1.067c0-1.067,0-1.067-1.067-2.133C161.067,337.067,160,336,160,336
		s-1.067-1.067-1.067-2.133S160,332.8,160,332.8c1.067,0,2.133,0,3.2,0c1.067,0,2.133,0,2.133-1.067c0-1.067,0-1.067,1.067-2.133
		c0-2.133,1.067-4.267,2.133-6.4c0-1.067,1.067-2.133,1.067-3.2c0-1.067,1.067-2.133,2.133-3.2c1.067,0,2.133-1.067,3.2-1.067
		c3.2,0,4.267-2.133,4.267-4.267c0-2.133,0-4.267,0-5.333c0-3.2,1.067-5.333,2.133-7.467c1.067-1.067,2.133-2.133,3.2-4.267
		C187.733,286.933,184.533,281.6,178.133,280.533z"/>
</g>
<g>
</g>
<g>
</g>
<g>
</g>
<g>
</g>
<g>
</g>
<g>
</g>
<g>
</g>
<g>
</g>
<g>
</g>
<g>
</g>
<g>
</g>
<g>
</g>
<g>
</g>
<g>
</g>
<g>
</g>
</svg>
