<?xml version="1.0" encoding="iso-8859-1"?>
<!-- Generator: Adobe Illustrator 19.0.0, SVG Export Plug-In . SVG Version: 6.00 Build 0)  -->
<svg version="1.1" id="Capa_1" xmlns="http://www.w3.org/2000/svg" xmlns:xlink="http://www.w3.org/1999/xlink" x="0px" y="0px"
	 viewBox="0 0 512 512" style="enable-background:new 0 0 512 512;" xml:space="preserve">
<rect x="187.28" y="76" style="fill:#E8EAE9;" width="138.7" height="92.5"/>
<polygon style="fill:#CFD7E1;" points="332.28,215.5 180.88,215.5 140.28,464 372.88,464 "/>
<g>
	<polygon style="fill:#F15741;" points="340.88,265.6 172.28,265.6 164.88,314.7 348.28,314.7 	"/>
	<polygon style="fill:#F15741;" points="356.88,364.8 156.28,364.8 148.88,413.9 364.28,413.9 	"/>
</g>
<polygon style="fill:#E8EAE9;" points="153.08,181.3 180.88,215.5 332.28,215.5 360.08,181.3 "/>
<path style="fill:#CFD7E1;" d="M360.08,168.5h-207c-4.3,0-7.5,3.2-7.5,7.5s3.2,7.5,7.5,7.5h205.9c4.3,0,7.5-3.2,7.5-7.5
	S363.28,168.5,360.08,168.5z"/>
<g>
	<polygon style="fill:#F3705B;" points="256.58,0 171.28,68.5 341.88,68.5 	"/>
	<path style="fill:#F3705B;" d="M341.88,67.2h-170.6c-3.2,0-5.3,2.1-5.3,5.3s2.1,5.3,5.3,5.3h170.7c3.2,0,5.3-2.1,5.3-5.3
		C347.28,69.3,345.08,67.2,341.88,67.2z"/>
</g>
<g>
	<path style="fill:#435B6C;" d="M257.68,260.3h-2.1c-11.7,0-22.4,9.6-22.4,22.4v39.5h45.9v-39.5
		C278.98,269.9,269.38,260.3,257.68,260.3z"/>
	<path style="fill:#435B6C;" d="M257.68,360.5h-3.2c-20.3,0-37.3,17.1-37.3,37.3V465h77.9v-67.2
		C294.98,376.5,278.98,360.5,257.68,360.5z"/>
</g>
<path style="fill:#E8EAE9;" d="M376.08,464h-239c-25.6,0-45.9,20.3-45.9,45.9v2.1h329.6v-2.1C421.88,484.3,400.58,464,376.08,464z"
	/>
<rect x="209.68" y="100.3" style="fill:#435B6C;" width="39.5" height="45.9"/>
<rect x="214.98" y="105.6" style="fill:#8BD7F8;" width="28.8" height="35.2"/>
<rect x="264.08" y="100.3" style="fill:#435B6C;" width="39.5" height="45.9"/>
<rect x="269.38" y="105.6" style="fill:#8BD7F8;" width="28.8" height="35.2"/>
<g>
</g>
<g>
</g>
<g>
</g>
<g>
</g>
<g>
</g>
<g>
</g>
<g>
</g>
<g>
</g>
<g>
</g>
<g>
</g>
<g>
</g>
<g>
</g>
<g>
</g>
<g>
</g>
<g>
</g>
</svg>
