<?xml version="1.0" encoding="iso-8859-1"?>
<!-- Generator: Adobe Illustrator 19.0.0, SVG Export Plug-In . SVG Version: 6.00 Build 0)  -->
<svg version="1.1" id="Capa_1" xmlns="http://www.w3.org/2000/svg" xmlns:xlink="http://www.w3.org/1999/xlink" x="0px" y="0px"
	 viewBox="0 0 512 512" style="enable-background:new 0 0 512 512;" xml:space="preserve">
<path style="fill:#435B6C;" d="M480,34.133L389.333,124.8v229.333c0,13.867-10.667,24.533-24.533,24.533H288V403.2h76.8
	c26.667,0,49.067-21.333,49.067-49.067V134.4l83.2-83.2L480,34.133z"/>
<path style="fill:#F3705B;" d="M460.8,99.2l-21.333-21.333c-3.2-3.2-8.533-3.2-11.733,0l-42.667,42.667
	c-1.067,1.067-2.133,3.2-2.133,5.333V192c0,8.533,6.4,14.933,14.933,14.933H448c8.533,0,14.933-6.4,14.933-14.933v-87.467
	C462.933,102.4,461.867,101.333,460.8,99.2z M451.2,178.133c0,1.067-1.067,3.2-3.2,3.2h-18.133c-1.067,0-3.2-1.067-3.2-3.2v-39.467
	c0-2.133,2.133-3.2,4.267-2.133l18.133,11.733c1.067,0,1.067,1.067,1.067,2.133v27.733H451.2z"/>
<polygon style="fill:#CFD7E1;" points="48,209.067 64,476.8 309.333,476.8 325.333,209.067 "/>
<path style="fill:#E8EAE9;" d="M334.933,0h-297.6C25.6,0,16,9.6,17.067,21.333l8.533,204.8c0,10.667,9.6,20.267,20.267,20.267H326.4
	c10.667,0,20.267-8.533,20.267-20.267l9.6-204.8C356.267,9.6,346.667,0,334.933,0z"/>
<polygon style="fill:#435B6C;" points="59.733,77.867 64,195.2 308.267,195.2 313.6,77.867 "/>
<path style="fill:#E8EAE9;" d="M318.933,472.533H54.4c-21.333,0-39.467,18.133-39.467,39.467H358.4
	C358.4,490.667,340.267,472.533,318.933,472.533z"/>
<g>
</g>
<g>
</g>
<g>
</g>
<g>
</g>
<g>
</g>
<g>
</g>
<g>
</g>
<g>
</g>
<g>
</g>
<g>
</g>
<g>
</g>
<g>
</g>
<g>
</g>
<g>
</g>
<g>
</g>
</svg>
