<?xml version="1.0" encoding="iso-8859-1"?>
<!-- Generator: Adobe Illustrator 19.0.0, SVG Export Plug-In . SVG Version: 6.00 Build 0)  -->
<svg version="1.1" id="Capa_1" xmlns="http://www.w3.org/2000/svg" xmlns:xlink="http://www.w3.org/1999/xlink" x="0px" y="0px"
	 viewBox="0 0 512.533 512.533" style="enable-background:new 0 0 512.533 512.533;" xml:space="preserve">
<path style="fill:#F3705B;" d="M406.6,62.4c-83.2-83.2-217.6-83.2-299.733,0c-83.2,83.2-83.2,216.533,0,299.733l149.333,150.4
	L405.533,363.2C488.733,280,488.733,145.6,406.6,62.4z"/>
<path style="fill:#FFFFFF;" d="M358.6,314.133c-56.533,56.533-147.2,56.533-203.733,0s-56.533-147.2,0-203.733
	s147.2-56.533,203.733,0C414.066,166.933,414.066,258.667,358.6,314.133z"/>
<polygon style="fill:#435B6C;" points="138.866,214.933 234.866,234.133 254.066,330.133 335.133,133.867 "/>
<g>
</g>
<g>
</g>
<g>
</g>
<g>
</g>
<g>
</g>
<g>
</g>
<g>
</g>
<g>
</g>
<g>
</g>
<g>
</g>
<g>
</g>
<g>
</g>
<g>
</g>
<g>
</g>
<g>
</g>
</svg>
