<?xml version="1.0" encoding="iso-8859-1"?>
<!-- Generator: Adobe Illustrator 19.0.0, SVG Export Plug-In . SVG Version: 6.00 Build 0)  -->
<svg version="1.1" id="Capa_1" xmlns="http://www.w3.org/2000/svg" xmlns:xlink="http://www.w3.org/1999/xlink" x="0px" y="0px"
	 viewBox="0 0 512 512" style="enable-background:new 0 0 512 512;" xml:space="preserve">
<path style="fill:#E8EAE9;" d="M385.067,172.8H126.933L99.2,245.333c0,74.667,357.333,74.667,357.333,0L385.067,172.8z"/>
<polygon style="fill:#435B6C;" points="341.333,245.333 320,267.733 139.733,267.733 132.267,245.333 0,245.333 13.867,289.067 
	35.2,289.067 77.867,369.067 349.867,369.067 512,245.333 "/>
<g>
	<rect x="154.667" y="199.467" style="fill:#8BD7F8;" width="23.467" height="23.467"/>
	<rect x="200.533" y="199.467" style="fill:#8BD7F8;" width="23.467" height="23.467"/>
	<rect x="246.4" y="199.467" style="fill:#8BD7F8;" width="23.467" height="23.467"/>
	<rect x="291.2" y="199.467" style="fill:#8BD7F8;" width="23.467" height="23.467"/>
	<rect x="337.067" y="199.467" style="fill:#8BD7F8;" width="23.467" height="23.467"/>
</g>
<rect x="269.867" y="41.6" style="fill:#435B6C;" width="14.933" height="76.8"/>
<path style="fill:#8BD7F8;" d="M425.6,349.867c-18.133-7.467-32-25.6-52.267-24.533c-23.467,1.067-35.2,29.867-56.533,39.467
	c-19.2,8.533-41.6,0-60.8-10.667c-18.133-10.667-37.333-23.467-58.667-24.533c-32-1.067-58.667,26.667-90.667,26.667
	c-19.2,0-37.333-9.6-56.533-14.933C32,337.067,9.6,340.267,0,355.2v115.2h512V338.133C482.133,342.4,453.333,360.533,425.6,349.867z
	"/>
<rect x="213.333" y="118.4" style="fill:#CFD7E1;" width="128" height="55.467"/>
<g>
	<rect x="234.667" y="132.267" style="fill:#8BD7F8;" width="29.867" height="25.6"/>
	<rect x="290.133" y="132.267" style="fill:#8BD7F8;" width="29.867" height="25.6"/>
</g>
<g>
</g>
<g>
</g>
<g>
</g>
<g>
</g>
<g>
</g>
<g>
</g>
<g>
</g>
<g>
</g>
<g>
</g>
<g>
</g>
<g>
</g>
<g>
</g>
<g>
</g>
<g>
</g>
<g>
</g>
</svg>
