<?xml version="1.0" encoding="iso-8859-1"?>
<!-- Generator: Adobe Illustrator 19.0.0, SVG Export Plug-In . SVG Version: 6.00 Build 0)  -->
<svg version="1.1" id="Capa_1" xmlns="http://www.w3.org/2000/svg" xmlns:xlink="http://www.w3.org/1999/xlink" x="0px" y="0px"
	 viewBox="0 0 512 512" style="enable-background:new 0 0 512 512;" xml:space="preserve">
<path style="fill:#67C6B9;" d="M469.333,0H42.667C19.2,0,0,19.2,0,42.667v426.667C0,492.8,19.2,512,42.667,512h426.667
	C492.8,512,512,492.8,512,469.333V42.667C512,19.2,492.8,0,469.333,0z"/>
<path style="fill:#FFFFFF;" d="M179.2,339.2L352,512h29.867L194.133,324.267l78.933-77.867v-94.933h83.2v182.4L508.8,486.4
	c2.133-5.333,3.2-10.667,3.2-17.067v-9.6L376.533,324.267v-172.8H512v-21.333H376.533V0H355.2v130.133H272V0h-53.333v224
	l-62.933,62.933L0,131.2v29.867l140.8,140.8l-84.267,84.267H0v53.333h78.933L179.2,339.2z"/>
<rect x="240" y="155.733" style="fill:#435B6C;" width="10.667" height="68.267"/>
<g>
	<rect x="240" style="fill:#CFD7E1;" width="10.667" height="22.4"/>
	<rect x="240" y="42.667" style="fill:#CFD7E1;" width="10.667" height="83.2"/>
	<polygon style="fill:#CFD7E1;" points="187.733,299.733 180.267,292.267 228.267,244.267 235.733,251.733 	"/>
	<polygon style="fill:#CFD7E1;" points="118.4,369.067 110.933,361.6 160,313.6 167.467,321.067 	"/>
	<polygon style="fill:#CFD7E1;" points="70.4,418.133 29.867,418.133 29.867,407.467 65.067,407.467 90.667,382.933 98.133,390.4 	
		"/>
</g>
<g>
	<path style="fill:#FFD15D;" d="M469.333,0h-92.8v130.133H512V42.667C512,19.2,492.8,0,469.333,0z"/>
	<path style="fill:#FFD15D;" d="M508.8,486.4L355.2,332.8V151.467H272V246.4l-78.933,77.867L381.867,512h87.467
		c20.267,0,37.333-14.933,41.6-34.133C510.933,481.067,509.867,483.2,508.8,486.4z"/>
	<polygon style="fill:#FFD15D;" points="140.8,301.867 0,161.067 0,386.133 56.533,386.133 	"/>
</g>
<path style="fill:#FFFFFF;" d="M280.533,100.267c-21.333-12.8-45.867-14.933-69.333-8.533V220.8l-26.667,26.667
	c26.667,19.2,61.867,22.4,90.667,7.467l6.4-6.4v-89.6h41.6c-2.133-12.8-8.533-25.6-17.067-37.333h-25.6V100.267z"/>
<g>
	<rect x="235.733" y="151.467" style="fill:#CFD7E1;" width="19.2" height="76.8"/>
	<path style="fill:#CFD7E1;" d="M254.933,130.133v-51.2c-6.4-1.067-12.8-2.133-18.133-2.133v53.333L254.933,130.133L254.933,130.133
		z"/>
	<path style="fill:#CFD7E1;" d="M228.267,238.933l-25.6,25.6c7.467,2.133,14.933,4.267,22.4,4.267l17.067-17.067L228.267,238.933z"
		/>
</g>
<rect x="293.214" y="238.189" transform="matrix(-0.7071 0.7071 -0.7071 -0.7071 727.7598 217.5972)" style="fill:#354B5E;" width="51.2" height="42.666"/>
<path style="fill:#435B6C;" d="M318.933,92.8c-45.867-45.867-120.533-45.867-167.467,0c-45.867,45.867-45.867,120.533,1.067,166.4
	c45.867,45.867,120.533,45.867,167.467,0C364.8,213.333,364.8,138.667,318.933,92.8z M297.6,237.867
	c-34.133,34.133-90.667,34.133-124.8,0s-34.133-90.667,0-124.8s90.667-34.133,124.8,0C332.8,148.267,332.8,203.733,297.6,237.867z"
	/>
<path style="fill:#F3705B;" d="M420.267,304l-48-48l-56.533,56.533l48,48c16,16,40.533,16,56.533,0
	C436.267,345.6,436.267,320,420.267,304z"/>
<rect x="340.909" y="249.636" transform="matrix(0.7071 0.7071 -0.7071 0.7071 307.3085 -162.6382)" style="fill:#F15741;" width="18.133" height="79.999"/>
<path style="fill:#F3705B;" d="M378.667,245.333c-4.267-4.267-10.667-4.267-14.933,0L305.067,304
	c-4.267,4.267-4.267,10.667,0,14.933s10.667,4.267,14.933,0l58.667-58.667C381.867,256,381.867,249.6,378.667,245.333z"/>
<g>
</g>
<g>
</g>
<g>
</g>
<g>
</g>
<g>
</g>
<g>
</g>
<g>
</g>
<g>
</g>
<g>
</g>
<g>
</g>
<g>
</g>
<g>
</g>
<g>
</g>
<g>
</g>
<g>
</g>
</svg>
