<?xml version="1.0" encoding="iso-8859-1"?>
<!-- Generator: Adobe Illustrator 19.0.0, SVG Export Plug-In . SVG Version: 6.00 Build 0)  -->
<svg version="1.1" id="Capa_1" xmlns="http://www.w3.org/2000/svg" xmlns:xlink="http://www.w3.org/1999/xlink" x="0px" y="0px"
	 viewBox="0 0 512 512" style="enable-background:new 0 0 512 512;" xml:space="preserve">
<rect y="248.533" style="fill:#CFD7E1;" width="512" height="263.467"/>
<g>
	<rect x="324.267" y="396.8" style="fill:#435B6C;" width="54.4" height="76.8"/>
	<rect x="414.933" y="396.8" style="fill:#435B6C;" width="54.4" height="76.8"/>
	<rect x="324.267" y="286.933" style="fill:#435B6C;" width="54.4" height="76.8"/>
	<rect x="414.933" y="286.933" style="fill:#435B6C;" width="54.4" height="76.8"/>
</g>
<path style="fill:#E8EAE9;" d="M160,21.333C114.133,67.2,89.6,92.8,43.733,137.6V512h233.6V137.6
	C231.467,92.8,205.867,67.2,160,21.333z"/>
<rect x="105.6" y="362.667" style="fill:#435B6C;" width="108.8" height="149.333"/>
<g>
	<path style="fill:#F3705B;" d="M314.667,145.067L176,6.4c-8.533-8.533-21.333-8.533-29.867,0L7.467,145.067
		c-8.533,8.533-8.533,21.333,0,29.867s21.333,8.533,29.867,0L160,51.2l123.733,123.733c4.267,4.267,9.6,6.4,14.933,6.4
		c5.333,0,10.667-2.133,14.933-6.4C322.133,167.467,322.133,153.6,314.667,145.067z"/>
	<polygon style="fill:#F3705B;" points="170.667,174.933 170.667,141.867 149.333,141.867 149.333,174.933 117.333,174.933 
		117.333,196.267 149.333,196.267 149.333,285.867 170.667,285.867 170.667,196.267 203.733,196.267 203.733,174.933 	"/>
</g>
<g>
</g>
<g>
</g>
<g>
</g>
<g>
</g>
<g>
</g>
<g>
</g>
<g>
</g>
<g>
</g>
<g>
</g>
<g>
</g>
<g>
</g>
<g>
</g>
<g>
</g>
<g>
</g>
<g>
</g>
</svg>
