<?xml version="1.0" encoding="iso-8859-1"?>
<!-- Generator: Adobe Illustrator 19.0.0, SVG Export Plug-In . SVG Version: 6.00 Build 0)  -->
<svg version="1.1" id="Capa_1" xmlns="http://www.w3.org/2000/svg" xmlns:xlink="http://www.w3.org/1999/xlink" x="0px" y="0px"
	 viewBox="0 0 512 512" style="enable-background:new 0 0 512 512;" xml:space="preserve">
<path style="fill:#E8EAE9;" d="M256,0C114.133,0,0,114.133,0,256l0,0c0,141.867,114.133,256,256,256s256-114.133,256-256l0,0
	C512,114.133,397.867,0,256,0z"/>
<path style="fill:#F3705B;" d="M256,46.933C140.8,46.933,46.933,140.8,46.933,256s93.867,209.067,208,209.067
	C370.133,465.067,464,371.2,464,256C465.067,140.8,371.2,46.933,256,46.933z M256,416c-88.533,0-160-71.467-160-160
	S167.467,96,256,96s160,71.467,160,160S344.533,416,256,416z"/>
<path style="fill:#67C6B9;" d="M374.4,205.867l-67.2-57.6V179.2H201.6c-23.467,0-41.6,19.2-41.6,41.6v118.4h53.333V232.533h94.933
	v30.933L374.4,205.867z"/>
<g>
</g>
<g>
</g>
<g>
</g>
<g>
</g>
<g>
</g>
<g>
</g>
<g>
</g>
<g>
</g>
<g>
</g>
<g>
</g>
<g>
</g>
<g>
</g>
<g>
</g>
<g>
</g>
<g>
</g>
</svg>
