<?xml version="1.0" encoding="iso-8859-1"?>
<!-- Generator: Adobe Illustrator 19.0.0, SVG Export Plug-In . SVG Version: 6.00 Build 0)  -->
<svg version="1.1" id="Capa_1" xmlns="http://www.w3.org/2000/svg" xmlns:xlink="http://www.w3.org/1999/xlink" x="0px" y="0px"
	 viewBox="0 0 512.004 512.004" style="enable-background:new 0 0 512.004 512.004;" xml:space="preserve">
<path style="fill:#444B66;" d="M403.545,382.479c-4.143,0-7.5,3.358-7.5,7.5v93.918H124.942v-93.918c0-4.142-3.357-7.5-7.5-7.5
	s-7.5,3.358-7.5,7.5v101.418c0,4.142,3.357,7.5,7.5,7.5h286.103c4.143,0,7.5-3.358,7.5-7.5V389.979
	C411.045,385.836,407.688,382.479,403.545,382.479z"/>
<path style="fill:#6E6B87;" d="M512.002,326.022v65.993c0,14.777-52.581,26.754-117.441,26.754S277.12,406.792,277.12,392.015
	v-65.993L512.002,326.022L512.002,326.022z"/>
<path style="fill:#625F78;" d="M481.097,325.79v84.079c19.188-4.762,30.905-11.111,30.905-18.086V325.79H481.097z"/>
<ellipse style="fill:#57566B;" cx="394.562" cy="326.02" rx="117.44" ry="26.754"/>
<path style="fill:#4D4C5E;" d="M394.561,299.268c-5.239,0-10.396,0.079-15.453,0.231c57.557,1.724,101.988,12.941,101.988,26.523
	s-44.431,24.8-101.988,26.523c5.057,0.151,10.214,0.231,15.453,0.231c64.861,0,117.441-11.978,117.441-26.754
	S459.422,299.268,394.561,299.268z"/>
<path style="fill:#6E6B87;" d="M512.002,223.003v65.993c0,14.777-52.581,26.754-117.441,26.754S277.12,303.773,277.12,288.996
	v-65.993H512.002z"/>
<path style="fill:#625F78;" d="M481.097,223.003v84.079c19.188-4.761,30.905-11.111,30.905-18.085v-65.993h-30.905V223.003z"/>
<path style="fill:#6E6B87;" d="M234.883,326.022v65.993c0,14.777-52.581,26.754-117.441,26.754S0.002,406.792,0.002,392.015v-65.993
	L234.883,326.022L234.883,326.022z"/>
<path style="fill:#625F78;" d="M203.978,325.79v84.079c19.189-4.762,30.905-11.112,30.905-18.086V325.79H203.978z"/>
<circle style="fill:#EC5569;" cx="256.002" cy="491.4" r="20.604"/>
<ellipse style="fill:#57566B;" cx="117.442" cy="325.79" rx="117.44" ry="26.754"/>
<path style="fill:#4D4C5E;" d="M117.443,299.036c-5.239,0-10.396,0.079-15.453,0.231c57.557,1.724,101.988,12.941,101.988,26.523
	s-44.431,24.8-101.988,26.523c5.057,0.151,10.214,0.231,15.453,0.231c64.861,0,117.441-11.978,117.441-26.754
	C234.883,311.014,182.303,299.036,117.443,299.036z"/>
<path style="fill:#6E6B87;" d="M234.883,223.003v65.993c0,14.777-52.581,26.754-117.441,26.754S0.002,303.774,0.002,288.997v-65.993
	h234.881V223.003z"/>
<path style="fill:#625F78;" d="M203.978,223.003v84.079c19.189-4.762,30.905-11.112,30.905-18.086v-65.993H203.978z"/>
<ellipse style="fill:#57566B;" cx="117.442" cy="223" rx="117.44" ry="26.754"/>
<path style="fill:#4D4C5E;" d="M117.443,196.249c-5.239,0-10.396,0.079-15.453,0.231c57.557,1.724,101.988,12.941,101.988,26.523
	s-44.431,24.8-101.988,26.523c5.057,0.151,10.214,0.231,15.453,0.231c64.861,0,117.441-11.978,117.441-26.754
	C234.883,208.228,182.303,196.249,117.443,196.249z"/>
<path style="fill:#6E6B87;" d="M234.883,119.985v65.993c0,14.777-52.581,26.754-117.441,26.754S0.002,200.756,0.002,185.978v-65.993
	H234.883z"/>
<path style="fill:#625F78;" d="M203.978,119.985v84.079c19.189-4.762,30.905-11.112,30.905-18.086v-65.993H203.978z"/>
<ellipse style="fill:#57566B;" cx="117.442" cy="119.98" rx="117.44" ry="26.754"/>
<path style="fill:#4D4C5E;" d="M117.443,93.231c-5.239,0-10.396,0.079-15.453,0.231c57.557,1.724,101.988,12.941,101.988,26.523
	s-44.431,24.8-101.988,26.523c5.057,0.151,10.214,0.231,15.453,0.231c64.861,0,117.441-11.978,117.441-26.754
	C234.883,105.21,182.303,93.231,117.443,93.231z"/>
<ellipse style="fill:#57566B;" cx="394.562" cy="223" rx="117.44" ry="26.754"/>
<path style="fill:#4D4C5E;" d="M394.561,196.249c-5.239,0-10.396,0.079-15.453,0.231c57.557,1.724,101.988,12.941,101.988,26.523
	s-44.431,24.8-101.988,26.523c5.057,0.151,10.214,0.231,15.453,0.231c64.861,0,117.441-11.978,117.441-26.754
	C512.002,208.228,459.422,196.249,394.561,196.249z"/>
<path style="fill:#6E6B87;" d="M512.002,119.985v65.993c0,14.777-52.581,26.754-117.441,26.754S277.12,200.755,277.12,185.978
	v-65.993H512.002z"/>
<g>
	<circle style="fill:#FAD87C;" cx="41.86" cy="183.94" r="7.726"/>
	<circle style="fill:#FAD87C;" cx="41.932" cy="161.79" r="7.726"/>
	<circle style="fill:#FAD87C;" cx="41.86" cy="286.96" r="7.726"/>
	<circle style="fill:#FAD87C;" cx="41.932" cy="264.81" r="7.726"/>
	<circle style="fill:#FAD87C;" cx="41.86" cy="389.98" r="7.726"/>
	<circle style="fill:#FAD87C;" cx="41.932" cy="367.83" r="7.726"/>
	<circle style="fill:#FAD87C;" cx="322.072" cy="183.94" r="7.726"/>
	<circle style="fill:#FAD87C;" cx="322.142" cy="161.79" r="7.726"/>
	<circle style="fill:#FAD87C;" cx="322.072" cy="286.96" r="7.726"/>
	<circle style="fill:#FAD87C;" cx="322.142" cy="264.81" r="7.726"/>
	<circle style="fill:#FAD87C;" cx="322.072" cy="389.98" r="7.726"/>
	<circle style="fill:#FAD87C;" cx="322.142" cy="367.83" r="7.726"/>
</g>
<path style="fill:#625F78;" d="M481.097,119.985v84.079c19.188-4.761,30.905-11.111,30.905-18.086v-65.993H481.097z"/>
<ellipse style="fill:#57566B;" cx="394.562" cy="119.98" rx="117.44" ry="26.754"/>
<path style="fill:#4D4C5E;" d="M394.561,93.231c-5.239,0-10.396,0.079-15.453,0.231c57.557,1.724,101.988,12.941,101.988,26.523
	s-44.431,24.8-101.988,26.523c5.057,0.151,10.214,0.231,15.453,0.231c64.861,0,117.441-11.978,117.441-26.754
	C512.002,105.21,459.422,93.231,394.561,93.231z"/>
<path style="fill:#444B66;" d="M403.545,13.104H115.582c-4.143,0-7.5,3.358-7.5,7.5v99.382c0,4.142,3.357,7.5,7.5,7.5
	s7.5-3.358,7.5-7.5V28.104h272.963v91.882c0,4.142,3.357,7.5,7.5,7.5s7.5-3.358,7.5-7.5V20.604
	C411.045,16.461,407.688,13.104,403.545,13.104z"/>
<circle style="fill:#EC5569;" cx="256.002" cy="20.604" r="20.604"/>
<g>
</g>
<g>
</g>
<g>
</g>
<g>
</g>
<g>
</g>
<g>
</g>
<g>
</g>
<g>
</g>
<g>
</g>
<g>
</g>
<g>
</g>
<g>
</g>
<g>
</g>
<g>
</g>
<g>
</g>
</svg>
