<?xml version="1.0" encoding="iso-8859-1"?>
<!-- Generator: Adobe Illustrator 19.0.0, SVG Export Plug-In . SVG Version: 6.00 Build 0)  -->
<svg version="1.1" id="Capa_1" xmlns="http://www.w3.org/2000/svg" xmlns:xlink="http://www.w3.org/1999/xlink" x="0px" y="0px"
	 viewBox="0 0 512 512" style="enable-background:new 0 0 512 512;" xml:space="preserve">
<path style="fill:#FAD87C;" d="M500.395,469H11.605C5.196,469,0,463.804,0,457.395V101.667h512v355.728
	C512,463.804,506.804,469,500.395,469z"/>
<path style="fill:#FEBE40;" d="M481.095,101.667v355.449c0,6.564-5.074,11.884-11.332,11.884h30.905
	c6.258,0,11.332-5.321,11.332-11.884V101.667H481.095z"/>
<path style="fill:#6E6B87;" d="M391.984,317.563v76.233c0,17.07-60.884,30.905-135.984,30.905s-135.984-13.835-135.984-30.905
	v-76.233H391.984z"/>
<path style="fill:#625F78;" d="M361.078,317.563v95.851c19.31-5.336,30.905-12.169,30.905-19.618v-76.233H361.078z"/>
<path style="fill:#EC5569;" d="M512,119.145H0.079V74.899h491.329c11.372,0,20.592,9.219,20.592,20.592V119.145z"/>
<path style="fill:#E63950;" d="M491.396,74.899h-30.905c11.379,0,20.604,9.214,20.604,20.58v23.667H512V95.478
	C512,84.112,502.775,74.899,491.396,74.899z"/>
<rect x="419.28" y="118.74" style="fill:#6AD2EB;" width="61.811" height="75.2"/>
<g>
	<circle style="fill:#444B66;" cx="450.15" cy="170.76" r="7.726"/>
	<circle style="fill:#444B66;" cx="450.23" cy="148.61" r="7.726"/>
</g>
<path style="fill:#6AD2EB;" d="M277.214,119.145H0.079V63.58C0.079,52.214,9.303,43,20.682,43h193.155
	c6.775,0,13.118,3.327,16.963,8.899L277.214,119.145z"/>
<ellipse style="fill:#57566B;" cx="256" cy="317.56" rx="135.98" ry="30.905"/>
<path style="fill:#4D4C5E;" d="M256,286.658c-5.226,0-10.38,0.069-15.453,0.2c67.824,1.744,120.531,14.825,120.531,30.706
	c0,15.881-52.707,28.962-120.531,30.706c5.073,0.13,10.227,0.2,15.453,0.2c75.102,0,135.984-13.837,135.984-30.905
	S331.102,286.658,256,286.658z"/>
<path style="fill:#6E6B87;" d="M391.984,193.942v76.233c0,17.07-60.884,30.905-135.984,30.905s-135.984-13.835-135.984-30.905
	v-76.233L391.984,193.942L391.984,193.942z"/>
<path style="fill:#625F78;" d="M361.078,193.942v95.851c19.31-5.336,30.905-12.169,30.905-19.618v-76.233L361.078,193.942
	L361.078,193.942z"/>
<ellipse style="fill:#57566B;" cx="256" cy="193.94" rx="135.98" ry="30.905"/>
<path style="fill:#4D4C5E;" d="M256,163.036c-5.226,0-10.38,0.069-15.453,0.2c67.824,1.744,120.531,14.825,120.531,30.706
	s-52.707,28.962-120.531,30.706c5.073,0.13,10.227,0.2,15.453,0.2c75.102,0,135.984-13.837,135.984-30.905
	S331.102,163.036,256,163.036z"/>
<g>
	<circle style="fill:#FAD87C;" cx="161.63" cy="267.18" r="7.726"/>
	<circle style="fill:#FAD87C;" cx="161.7" cy="245.03" r="7.726"/>
	<circle style="fill:#FAD87C;" cx="161.63" cy="390.09" r="7.726"/>
	<circle style="fill:#FAD87C;" cx="161.7" cy="367.94" r="7.726"/>
</g>
<g>
</g>
<g>
</g>
<g>
</g>
<g>
</g>
<g>
</g>
<g>
</g>
<g>
</g>
<g>
</g>
<g>
</g>
<g>
</g>
<g>
</g>
<g>
</g>
<g>
</g>
<g>
</g>
<g>
</g>
</svg>
