<?xml version="1.0" encoding="iso-8859-1"?>
<!-- Generator: Adobe Illustrator 19.0.0, SVG Export Plug-In . SVG Version: 6.00 Build 0)  -->
<svg version="1.1" id="Capa_1" xmlns="http://www.w3.org/2000/svg" xmlns:xlink="http://www.w3.org/1999/xlink" x="0px" y="0px"
	 viewBox="0 0 512.004 512.004" style="enable-background:new 0 0 512.004 512.004;" xml:space="preserve">
<path style="fill:#444B66;" d="M487.275,385.56H263.5v-64.559c0-4.142-3.357-7.5-7.5-7.5c-4.142,0-7.5,3.358-7.5,7.5v64.559H24.724
	c-4.142,0-7.5,3.358-7.5,7.5v50.441c0,4.142,3.358,7.5,7.5,7.5s7.5-3.358,7.5-7.5V400.56h447.551v42.941c0,4.142,3.357,7.5,7.5,7.5
	s7.5-3.358,7.5-7.5V393.06C494.775,388.918,491.418,385.56,487.275,385.56z"/>
<rect x="126.71" y="137.211" style="fill:#F1F2E6;" width="258.57" height="175.46"/>
<rect x="354.38" y="137.211" style="fill:#DDDED2;" width="30.905" height="175.46"/>
<path style="fill:#EC5569;" d="M100.279,149.563h311.443c3.822,0,5.415-4.549,2.327-6.645L258.327,37.207
	c-1.387-0.941-3.268-0.941-4.654,0L97.951,142.919C94.864,145.015,96.457,149.563,100.279,149.563z"/>
<path style="fill:#BD2C30;" d="M414.049,142.919L258.327,37.207c-1.387-0.941-3.268-0.941-4.654,0l-15.554,10.559l145.539,98.8
	c1.149,0.78,1.648,1.899,1.627,2.998h26.436C415.543,149.563,417.136,145.015,414.049,142.919z"/>
<path style="fill:#AC6A51;" d="M410.525,331.229h-309.05c-8.536,0-15.455-6.92-15.455-15.455v-0.005
	c0-8.536,6.92-15.455,15.455-15.455h309.049c8.536,0,15.455,6.92,15.455,15.455v0.005
	C425.98,324.309,419.06,331.229,410.525,331.229z"/>
<path style="fill:#945B44;" d="M410.527,300.313h-31.034c8.534,0,15.453,6.921,15.453,15.458c0,8.537-6.918,15.458-15.453,15.458
	h31.034c8.534,0,15.453-6.921,15.453-15.458S419.061,300.313,410.527,300.313z"/>
<path style="fill:#444B66;" d="M286.905,300.313h-61.811v-76.268c0-17.069,13.837-30.905,30.905-30.905l0,0
	c17.069,0,30.905,13.837,30.905,30.905v76.268H286.905z"/>
<g>
	<path style="fill:#FAD87C;" d="M354.38,215.531v41.35c0,2.209-1.791,4-4,4h-37.33c-2.209,0-4-1.791-4-4v-41.35
		c0-9.88,6.34-18.29,15.17-21.38c2.35-0.83,4.87-1.28,7.5-1.28s5.16,0.45,7.5,1.28c3.24,1.13,6.14,2.98,8.52,5.36
		C351.84,203.611,354.38,209.281,354.38,215.531z"/>
	<path style="fill:#FAD87C;" d="M202.95,215.531v41.35c0,2.209-1.791,4-4,4h-37.33c-2.209,0-4-1.791-4-4v-41.35
		c0-9.88,6.33-18.29,15.16-21.38c2.34-0.83,4.87-1.28,7.5-1.28s5.15,0.45,7.5,1.28c3.24,1.13,6.15,2.98,8.53,5.36
		C200.41,203.611,202.95,209.281,202.95,215.531z"/>
</g>
<g>
	<ellipse style="fill:#EC5569;" cx="24.724" cy="450.771" rx="24.724" ry="24.732"/>
	<ellipse style="fill:#EC5569;" cx="487.28" cy="450.771" rx="24.724" ry="24.732"/>
</g>
<path style="fill:#6AD2EB;" d="M278.664,122.957h-45.328V93.065c0-12.517,10.147-22.664,22.664-22.664l0,0
	c12.517,0,22.664,10.147,22.664,22.664V122.957z"/>
<g>
	<path style="fill:#444B66;" d="M298.237,130.458h-84.475c-4.142,0-7.5-3.358-7.5-7.5s3.358-7.5,7.5-7.5h84.475
		c4.143,0,7.5,3.358,7.5,7.5S302.38,130.458,298.237,130.458z"/>
	<path style="fill:#444B66;" d="M353.044,194.209c-3.192-3.193-7.118-5.662-11.318-7.126c-6.391-2.266-13.588-2.269-19.983-0.01
		c-12.078,4.227-20.192,15.664-20.192,28.459v41.35c0,6.341,5.159,11.5,11.5,11.5h37.33c6.341,0,11.5-5.159,11.5-11.5v-41.35
		C361.88,207.479,358.742,199.906,353.044,194.209z M342.437,204.814c2.865,2.865,4.443,6.671,4.443,10.717v3.85h-7.66v-16.996
		C340.387,203.053,341.481,203.859,342.437,204.814z M324.22,202.369v17.012h-7.67v-3.85
		C316.55,210.029,319.543,205.033,324.22,202.369z M316.55,234.381h7.67v19h-7.67V234.381z M339.22,253.381v-19h7.66v19H339.22z"/>
	<path style="fill:#444B66;" d="M190.296,187.082c-6.392-2.266-13.59-2.268-19.984-0.01c-12.078,4.227-20.192,15.664-20.192,28.459
		v41.35c0,6.341,5.159,11.5,11.5,11.5h37.33c6.341,0,11.5-5.159,11.5-11.5v-41.35c0-8.053-3.139-15.625-8.837-21.323
		C198.421,191.015,194.495,188.547,190.296,187.082z M191.007,204.815c2.865,2.865,4.443,6.67,4.443,10.716v3.85h-7.67V202.38
		C188.951,203.048,190.048,203.856,191.007,204.815z M172.78,202.376v17.005h-7.66v-3.85
		C165.12,210.033,168.108,205.041,172.78,202.376z M165.12,234.381h7.66v19h-7.66V234.381z M187.78,253.381v-19h7.67v19H187.78z"/>
</g>
<g>
</g>
<g>
</g>
<g>
</g>
<g>
</g>
<g>
</g>
<g>
</g>
<g>
</g>
<g>
</g>
<g>
</g>
<g>
</g>
<g>
</g>
<g>
</g>
<g>
</g>
<g>
</g>
<g>
</g>
</svg>
