<?xml version="1.0" encoding="iso-8859-1"?>
<!-- Generator: Adobe Illustrator 19.0.0, SVG Export Plug-In . SVG Version: 6.00 Build 0)  -->
<svg version="1.1" id="Capa_1" xmlns="http://www.w3.org/2000/svg" xmlns:xlink="http://www.w3.org/1999/xlink" x="0px" y="0px"
	 viewBox="0 0 512.004 512.004" style="enable-background:new 0 0 512.004 512.004;" xml:space="preserve">
<path style="fill:#444B66;" d="M235.518,498.896c-4.142,0-7.5-3.358-7.5-7.5v-71.328c0-4.142,3.358-7.5,7.5-7.5s7.5,3.358,7.5,7.5
	v71.328C243.018,495.539,239.66,498.896,235.518,498.896z"/>
<path style="fill:#6E6B87;" d="M371.502,341.505v76.233c0,17.07-60.891,30.905-136,30.905s-136-13.835-136-30.905v-76.233H371.502z"
	/>
<path style="fill:#625F78;" d="M340.593,341.505v95.851c19.312-5.336,30.909-12.169,30.909-19.618v-76.233H340.593z"/>
<ellipse style="fill:#57566B;" cx="235.502" cy="341.5" rx="136" ry="30.905"/>
<path style="fill:#4D4C5E;" d="M235.502,310.6c-5.227,0-10.381,0.069-15.455,0.2c67.832,1.744,120.545,14.825,120.545,30.706
	c0,15.881-52.713,28.962-120.545,30.706c5.073,0.13,10.228,0.2,15.455,0.2c75.111,0,136-13.837,136-30.905
	S310.613,310.6,235.502,310.6z"/>
<path style="fill:#6E6B87;" d="M371.502,217.883v76.233c0,17.07-60.891,30.905-136,30.905s-136-13.835-136-30.905v-76.233H371.502z"
	/>
<path style="fill:#625F78;" d="M340.593,217.883v95.851c19.312-5.336,30.909-12.169,30.909-19.618v-76.233H340.593z"/>
<ellipse style="fill:#57566B;" cx="235.502" cy="217.88" rx="136" ry="30.905"/>
<path style="fill:#4D4C5E;" d="M235.502,186.978c-5.227,0-10.381,0.069-15.455,0.2c67.832,1.744,120.545,14.825,120.545,30.706
	s-52.713,28.962-120.545,30.706c5.073,0.13,10.228,0.2,15.455,0.2c75.111,0,136-13.837,136-30.905S310.613,186.978,235.502,186.978z
	"/>
<path style="fill:#6E6B87;" d="M371.502,94.262v76.233c0,17.07-60.891,30.905-136,30.905s-136-13.835-136-30.905V94.262H371.502z"/>
<path style="fill:#625F78;" d="M340.593,94.262v95.851c19.312-5.336,30.909-12.169,30.909-19.618V94.262H340.593z"/>
<ellipse style="fill:#57566B;" cx="235.502" cy="94.26" rx="136" ry="30.905"/>
<path style="fill:#4D4C5E;" d="M235.502,63.356c-5.227,0-10.381,0.069-15.455,0.2c67.832,1.744,120.545,14.825,120.545,30.706
	s-52.713,28.962-120.545,30.706c5.073,0.13,10.228,0.2,15.455,0.2c75.111,0,136-13.837,136-30.905S310.613,63.356,235.502,63.356z"
	/>
<path style="fill:#444B66;" d="M235.518,101.762c-4.142,0-7.5-3.358-7.5-7.5V20.604c0-4.142,3.358-7.5,7.5-7.5s7.5,3.358,7.5,7.5
	v73.658C243.018,98.404,239.66,101.762,235.518,101.762z"/>
<g>
	<circle style="fill:#EC5569;" cx="235.522" cy="491.4" r="20.604"/>
	<circle style="fill:#EC5569;" cx="235.522" cy="20.604" r="20.604"/>
</g>
<g>
	<circle style="fill:#FAD87C;" cx="143.282" cy="167.15" r="7.726"/>
	<circle style="fill:#FAD87C;" cx="143.352" cy="145" r="7.726"/>
	<circle style="fill:#FAD87C;" cx="143.282" cy="290.06" r="7.726"/>
	<circle style="fill:#FAD87C;" cx="143.352" cy="267.91" r="7.726"/>
	<circle style="fill:#FAD87C;" cx="143.282" cy="412.97" r="7.726"/>
	<circle style="fill:#FAD87C;" cx="143.352" cy="390.82" r="7.726"/>
</g>
<path style="fill:#EC5569;" d="M400.502,336h-136c-6.627,0-12-5.373-12-12V188c0-6.627,5.373-12,12-12h136c6.627,0,12,5.373,12,12
	v136C412.502,330.627,407.129,336,400.502,336z"/>
<path style="fill:#E63950;" d="M400.502,176h-30c6.627,0,12,5.373,12,12v136c0,6.627-5.373,12-12,12h30c6.627,0,12-5.373,12-12V188
	C412.502,181.373,407.129,176,400.502,176z"/>
<path style="fill:#FAD87C;" d="M385.852,254.86c0,0.7-0.36,1.4-1.08,1.77L292.152,305c-1.42,0.74-3.09-0.4-2.92-1.99l5.24-48.15
	l-5.24-48.14c-0.06-0.52,0.08-0.98,0.35-1.35c0.04-0.06,0.08-0.11,0.12-0.16c0.57-0.67,1.56-0.95,2.45-0.48l92.62,48.36
	C385.492,253.46,385.852,254.16,385.852,254.86z"/>
<path style="fill:#FEBE40;" d="M385.852,254.86h-91.38l-5.23-48.14c-0.06-0.52,0.08-0.98,0.34-1.35c0.04-0.06,0.08-0.11,0.12-0.16
	c0.57-0.67,1.56-0.95,2.45-0.48l92.62,48.36C385.492,253.46,385.852,254.16,385.852,254.86z"/>
<g>
</g>
<g>
</g>
<g>
</g>
<g>
</g>
<g>
</g>
<g>
</g>
<g>
</g>
<g>
</g>
<g>
</g>
<g>
</g>
<g>
</g>
<g>
</g>
<g>
</g>
<g>
</g>
<g>
</g>
</svg>
