<?xml version="1.0" encoding="iso-8859-1"?>
<!-- Generator: Adobe Illustrator 19.0.0, SVG Export Plug-In . SVG Version: 6.00 Build 0)  -->
<svg version="1.1" id="Capa_1" xmlns="http://www.w3.org/2000/svg" xmlns:xlink="http://www.w3.org/1999/xlink" x="0px" y="0px"
	 viewBox="0 0 512.001 512.001" style="enable-background:new 0 0 512.001 512.001;" xml:space="preserve">
<path style="fill:#6E6B87;" d="M367.488,512H144.512c-2.278,0-4.125-1.847-4.125-4.125V449.35h231.226v58.526
	C371.613,510.153,369.766,512,367.488,512z"/>
<path style="fill:#625F78;" d="M340.645,449.35v58.53c0,2.276-1.849,4.121-4.129,4.121h30.968c2.28,0,4.129-1.845,4.129-4.121
	v-58.53L340.645,449.35L340.645,449.35z"/>
<path style="fill:#EC5569;" d="M374.72,485.215H137.28c-5.695,0-10.312-4.617-10.312-10.312V196.775
	c0-5.695,4.617-10.312,10.312-10.312h237.44c5.695,0,10.312,4.617,10.312,10.312v278.128
	C385.033,480.598,380.415,485.215,374.72,485.215z"/>
<path style="fill:#E63950;" d="M374.71,186.463h-30.968c5.701,0,10.323,4.612,10.323,10.302v278.149
	c0,5.69-4.622,10.302-10.323,10.302h30.968c5.701,0,10.323-4.612,10.323-10.302V196.765
	C385.033,191.075,380.411,186.463,374.71,186.463z"/>
<ellipse style="fill:#FAD87C;" cx="194.06" cy="438.02" rx="15.484" ry="15.453"/>
<g>
	<path style="fill:#6E6B87;" d="M126.968,309.054H100c-2.209,0-4-1.791-4-4V15.468C96,6.925,102.925,0,111.468,0h0.031
		c8.543,0,15.468,6.925,15.468,15.468L126.968,309.054L126.968,309.054z"/>
	<path style="fill:#6E6B87;" d="M412,309.054h-26.968V15.468C385.033,6.925,391.958,0,400.501,0h0.031
		C409.076,0,416,6.925,416,15.468v289.586C416,307.263,414.21,309.054,412,309.054z"/>
</g>
<path style="fill:#CAEEFC;" d="M331.484,300.554H180.516c-2.209,0-4-1.791-4-4v-68.233c0-2.209,1.791-4,4-4h150.968
	c2.209,0,4,1.791,4,4v68.233C335.484,298.763,333.693,300.554,331.484,300.554z"/>
<path style="fill:#89CEEA;" d="M331.484,300.554h-26.968v-76.233h26.968c2.209,0,4,1.791,4,4v68.233
	C335.484,298.763,333.693,300.554,331.484,300.554z"/>
<g>
	<path style="fill:#FAD87C;" d="M333.419,456.85h-92.903c-4.142,0-7.5-3.358-7.5-7.5s3.358-7.5,7.5-7.5h92.903
		c4.142,0,7.5,3.358,7.5,7.5S337.563,456.85,333.419,456.85z"/>
	<path style="fill:#FAD87C;" d="M333.419,434.186h-92.903c-4.142,0-7.5-3.358-7.5-7.5s3.358-7.5,7.5-7.5h92.903
		c4.142,0,7.5,3.358,7.5,7.5S337.563,434.186,333.419,434.186z"/>
</g>
<g>
</g>
<g>
</g>
<g>
</g>
<g>
</g>
<g>
</g>
<g>
</g>
<g>
</g>
<g>
</g>
<g>
</g>
<g>
</g>
<g>
</g>
<g>
</g>
<g>
</g>
<g>
</g>
<g>
</g>
</svg>
