<?xml version="1.0" encoding="iso-8859-1"?>
<!-- Generator: Adobe Illustrator 19.0.0, SVG Export Plug-In . SVG Version: 6.00 Build 0)  -->
<svg version="1.1" id="Capa_1" xmlns="http://www.w3.org/2000/svg" xmlns:xlink="http://www.w3.org/1999/xlink" x="0px" y="0px"
	 viewBox="0 0 512.004 512.004" style="enable-background:new 0 0 512.004 512.004;" xml:space="preserve">
<g>
	<path style="fill:#444B66;" d="M256.517,291.043c-4.142,0-7.5-3.358-7.5-7.5V88.596c0-4.142,3.358-7.5,7.5-7.5s7.5,3.358,7.5,7.5
		v194.947C264.018,287.685,260.659,291.043,256.517,291.043z"/>
	<path style="fill:#444B66;" d="M101.51,494.778c-3.156,0-6.093-2.008-7.127-5.171c-1.288-3.937,0.86-8.172,4.797-9.459
		l50.405-16.483c3.937-1.288,8.172,0.86,9.459,4.797c1.288,3.937-0.86,8.172-4.797,9.459l-50.405,16.483
		C103.069,494.658,102.283,494.778,101.51,494.778z"/>
	<path style="fill:#444B66;" d="M409.463,494.778c-0.772,0-1.558-0.12-2.332-0.374l-50.405-16.483
		c-3.938-1.287-6.085-5.522-4.798-9.459s5.522-6.086,9.46-4.797l50.405,16.483c3.938,1.287,6.085,5.522,4.798,9.459
		C415.557,492.77,412.619,494.778,409.463,494.778z"/>
</g>
<path style="fill:#6E6B87;" d="M438.562,103.018H72.413c-7.959,0-14.411-6.452-14.411-14.411V14.411C58.002,6.452,64.454,0,72.413,0
	h366.149c7.959,0,14.411,6.452,14.411,14.411v74.196C452.973,96.566,446.521,103.018,438.562,103.018z"/>
<path style="fill:#625F78;" d="M438.573,0h-30.857c7.953,0,14.4,6.457,14.4,14.423v74.173c0,7.965-6.447,14.423-14.4,14.423h30.857
	c7.953,0,14.4-6.457,14.4-14.423V14.423C452.973,6.457,446.526,0,438.573,0z"/>
<path style="fill:#6E6B87;" d="M438.562,239.002H72.413c-7.959,0-14.411-6.452-14.411-14.411v-74.196
	c0-7.959,6.452-14.411,14.411-14.411h366.149c7.959,0,14.411,6.452,14.411,14.411v74.196
	C452.973,232.55,446.521,239.002,438.562,239.002z"/>
<path style="fill:#625F78;" d="M438.573,135.984h-30.857c7.953,0,14.4,6.457,14.4,14.423v74.173c0,7.965-6.447,14.423-14.4,14.423
	h30.857c7.953,0,14.4-6.457,14.4-14.423v-74.173C452.973,142.441,446.526,135.984,438.573,135.984z"/>
<path style="fill:#6E6B87;" d="M439.591,374.986H73.442c-7.959,0-14.411-6.452-14.411-14.411v-74.196
	c0-7.959,6.452-14.411,14.411-14.411h366.149c7.959,0,14.411,6.452,14.411,14.411v74.196
	C454.002,368.534,447.55,374.986,439.591,374.986z"/>
<path style="fill:#625F78;" d="M439.602,271.968h-30.857c7.953,0,14.4,6.457,14.4,14.423v74.173c0,7.965-6.447,14.423-14.4,14.423
	h30.857c7.953,0,14.4-6.457,14.4-14.423V286.39C454.002,278.425,447.555,271.968,439.602,271.968z"/>
<g>
	<circle style="fill:#7ACBDE;" cx="120.742" cy="50.48" r="15.453"/>
	<circle style="fill:#7ACBDE;" cx="120.742" cy="187.49" r="15.453"/>
	<circle style="fill:#7ACBDE;" cx="120.742" cy="323.48" r="15.453"/>
</g>
<path style="fill:#FAD87C;" d="M311.322,66.962H243.33c-1.138,0-2.06-0.922-2.06-2.06V38.117c0-1.138,0.922-2.06,2.06-2.06h67.992
	c1.138,0,2.06,0.922,2.06,2.06v26.785C313.382,66.039,312.46,66.962,311.322,66.962z"/>
<path style="fill:#FEBE40;" d="M311.322,36.056h-30.905c1.138,0,2.06,0.922,2.06,2.06v26.785c0,1.138-0.922,2.06-2.06,2.06h30.905
	c1.138,0,2.06-0.922,2.06-2.06V38.117C313.382,36.979,312.46,36.056,311.322,36.056z"/>
<path style="fill:#FAD87C;" d="M410.219,66.962h-67.992c-1.138,0-2.06-0.922-2.06-2.06V38.117c0-1.138,0.922-2.06,2.06-2.06h67.992
	c1.138,0,2.06,0.922,2.06,2.06v26.785C412.28,66.039,411.357,66.962,410.219,66.962z"/>
<path style="fill:#FEBE40;" d="M410.219,36.056h-30.905c1.138,0,2.06,0.922,2.06,2.06v26.785c0,1.138-0.922,2.06-2.06,2.06h30.905
	c1.138,0,2.06-0.922,2.06-2.06V38.117C412.28,36.979,411.357,36.056,410.219,36.056z"/>
<path style="fill:#FAD87C;" d="M311.322,202.946H243.33c-1.138,0-2.06-0.922-2.06-2.06v-26.785c0-1.138,0.922-2.06,2.06-2.06h67.992
	c1.138,0,2.06,0.922,2.06,2.06v26.785C313.382,202.023,312.46,202.946,311.322,202.946z"/>
<path style="fill:#FEBE40;" d="M311.322,172.04h-30.905c1.138,0,2.06,0.922,2.06,2.06v26.785c0,1.138-0.922,2.06-2.06,2.06h30.905
	c1.138,0,2.06-0.922,2.06-2.06V174.1C313.382,172.963,312.46,172.04,311.322,172.04z"/>
<path style="fill:#FAD87C;" d="M410.219,202.946h-67.992c-1.138,0-2.06-0.922-2.06-2.06v-26.785c0-1.138,0.922-2.06,2.06-2.06
	h67.992c1.138,0,2.06,0.922,2.06,2.06v26.785C412.28,202.023,411.357,202.946,410.219,202.946z"/>
<path style="fill:#FEBE40;" d="M410.219,172.04h-30.905c1.138,0,2.06,0.922,2.06,2.06v26.785c0,1.138-0.922,2.06-2.06,2.06h30.905
	c1.138,0,2.06-0.922,2.06-2.06V174.1C412.28,172.963,411.357,172.04,410.219,172.04z"/>
<path style="fill:#FAD87C;" d="M311.322,336.869H243.33c-1.138,0-2.06-0.922-2.06-2.06v-26.785c0-1.138,0.922-2.06,2.06-2.06h67.992
	c1.138,0,2.06,0.922,2.06,2.06v26.785C313.382,335.947,312.46,336.869,311.322,336.869z"/>
<path style="fill:#FEBE40;" d="M311.322,305.964h-30.905c1.138,0,2.06,0.922,2.06,2.06v26.785c0,1.138-0.922,2.06-2.06,2.06h30.905
	c1.138,0,2.06-0.922,2.06-2.06v-26.785C313.382,306.886,312.46,305.964,311.322,305.964z"/>
<path style="fill:#FAD87C;" d="M410.219,336.869h-67.992c-1.138,0-2.06-0.922-2.06-2.06v-26.785c0-1.138,0.922-2.06,2.06-2.06
	h67.992c1.138,0,2.06,0.922,2.06,2.06v26.785C412.28,335.947,411.357,336.869,410.219,336.869z"/>
<path style="fill:#FEBE40;" d="M410.219,305.964h-30.905c1.138,0,2.06,0.922,2.06,2.06v26.785c0,1.138-0.922,2.06-2.06,2.06h30.905
	c1.138,0,2.06-0.922,2.06-2.06v-26.785C412.28,306.886,411.357,305.964,410.219,305.964z"/>
<g>
	<circle style="fill:#EC5569;" cx="101.512" cy="487.28" r="24.724"/>
	<circle style="fill:#EC5569;" cx="409.462" cy="487.28" r="24.724"/>
</g>
<path style="fill:#6AD2EB;" d="M320.217,512h-129.46c-5.5,0-9.958-4.459-9.958-9.958v-129.46c0-5.5,4.459-9.958,9.958-9.958h129.459
	c5.5,0,9.958,4.459,9.958,9.958v129.459C330.175,507.541,325.717,512,320.217,512z"/>
<path style="fill:#42B6D1;" d="M320.217,362.624h-30.905c5.5,0,9.958,4.458,9.958,9.958v129.46c0,5.5-4.458,9.958-9.958,9.958
	h30.905c5.5,0,9.958-4.458,9.958-9.958v-129.46C330.175,367.082,325.717,362.624,320.217,362.624z"/>
<path style="fill:#444B66;" d="M312.299,459.744l-7.924-7.924c-3.533-3.533-8.23-5.479-13.229-5.479
	c-4.359,0-8.489,1.482-11.818,4.206l-37.077-37.076c5.992-7.34,5.568-18.205-1.273-25.047l-7.925-7.924
	c-2.929-2.93-7.678-2.929-10.606,0c-2.929,2.929-2.929,7.678,0,10.607l7.924,7.924c1.446,1.445,1.446,3.797,0,5.243l-7.925,7.924
	c-0.944,0.945-2.047,1.086-2.621,1.086s-1.676-0.141-2.621-1.086l-7.924-7.924c-2.929-2.929-7.678-2.929-10.606,0
	c-2.929,2.929-2.929,7.678,0,10.606l7.924,7.924c3.533,3.533,8.231,5.479,13.228,5.479c4.359,0,8.49-1.483,11.819-4.206
	l37.076,37.076c-5.992,7.341-5.567,18.206,1.274,25.046l7.925,7.924c1.464,1.465,3.384,2.197,5.303,2.197s3.839-0.732,5.304-2.197
	c2.929-2.929,2.929-7.678-0.001-10.607l-7.924-7.924c-1.445-1.445-1.445-3.797-0.001-5.243l3.951-3.95
	c0.004-0.004,0.009-0.007,0.013-0.011s0.007-0.009,0.011-0.013l3.95-3.95c0.944-0.944,2.047-1.085,2.62-1.085
	c0.574,0,1.677,0.141,2.622,1.085l7.925,7.924c2.928,2.93,7.677,2.929,10.606,0C315.229,467.421,315.229,462.673,312.299,459.744z"
	/>
<g>
</g>
<g>
</g>
<g>
</g>
<g>
</g>
<g>
</g>
<g>
</g>
<g>
</g>
<g>
</g>
<g>
</g>
<g>
</g>
<g>
</g>
<g>
</g>
<g>
</g>
<g>
</g>
<g>
</g>
</svg>
