<?xml version="1.0" encoding="iso-8859-1"?>
<!-- Generator: Adobe Illustrator 19.0.0, SVG Export Plug-In . SVG Version: 6.00 Build 0)  -->
<svg version="1.1" id="Capa_1" xmlns="http://www.w3.org/2000/svg" xmlns:xlink="http://www.w3.org/1999/xlink" x="0px" y="0px"
	 viewBox="0 0 512 512" style="enable-background:new 0 0 512 512;" xml:space="preserve">
<path style="fill:#444B66;" d="M256,184.785c-4.143,0-7.5,3.357-7.5,7.5v207.4c0,4.143,3.357,7.5,7.5,7.5s7.5-3.357,7.5-7.5v-207.4
	C263.5,188.143,260.143,184.785,256,184.785z"/>
<path style="fill:#EC5569;" d="M465.804,479H46.196C20.683,479,0,458.318,0,432.803v-0.143c0-25.513,20.683-46.196,46.196-46.196
	h419.608c25.513,0,46.196,20.683,46.196,46.196v0.143C512,458.318,491.317,479,465.804,479z"/>
<path style="fill:#E63950;" d="M465.759,386.464h-30.905c25.538,0,46.241,20.662,46.241,46.151v0.234
	c0,25.488-20.703,46.151-46.241,46.151h30.905C491.297,479,512,458.338,512,432.849v-0.234
	C512,407.127,491.297,386.464,465.759,386.464z"/>
<ellipse style="fill:#6AD2EB;" cx="81.38" cy="431.919" rx="15.453" ry="15.423"/>
<path style="fill:#FAD87C;" d="M295.422,447.688c-8.392,0-15.219-6.814-15.219-15.189c0-8.376,6.827-15.19,15.219-15.19h170.454
	c8.391,0,15.218,6.814,15.218,15.19c0,8.375-6.827,15.189-15.218,15.189H295.422z"/>
<path style="fill:#FEBE40;" d="M465.876,417.31h-30.905c8.391,0,15.218,6.814,15.218,15.19c0,8.375-6.827,15.189-15.218,15.189
	h30.905c8.391,0,15.218-6.814,15.218-15.189C481.094,424.122,474.267,417.31,465.876,417.31z"/>
<ellipse style="fill:#EC5569;" cx="256" cy="184.939" rx="20.604" ry="20.563"/>
<g>
	<path style="fill:#6AD2EB;" d="M256,32.999c-83.662,0-151.726,67.938-151.726,151.443c0,50.681,25.304,97.796,67.688,126.033
		c3.446,2.299,8.104,1.364,10.399-2.083c2.297-3.447,1.364-8.104-2.083-10.399c-38.198-25.45-61.004-67.898-61.004-113.551
		c0-75.235,61.335-136.443,136.726-136.443s136.726,61.208,136.726,136.443c0,45.652-22.806,88.101-61.004,113.551
		c-3.447,2.296-4.38,6.952-2.083,10.399c1.444,2.169,3.823,3.343,6.248,3.343c1.429,0,2.873-0.408,4.151-1.26
		c42.384-28.237,67.688-75.353,67.688-126.033C407.726,100.936,339.662,32.999,256,32.999z"/>
	<path style="fill:#6AD2EB;" d="M364.798,184.442c0-59.882-48.807-108.6-108.798-108.6s-108.798,48.718-108.798,108.6
		c0,36.346,18.145,70.132,48.536,90.378c3.447,2.297,8.104,1.362,10.4-2.084c2.296-3.447,1.363-8.104-2.084-10.4
		c-26.207-17.457-41.853-46.576-41.853-77.894c0-51.611,42.077-93.6,93.798-93.6s93.798,41.988,93.798,93.6
		c0,31.317-15.646,60.437-41.853,77.894c-3.447,2.297-4.38,6.953-2.084,10.4c1.445,2.169,3.824,3.343,6.249,3.343
		c1.429,0,2.873-0.408,4.151-1.259C346.653,254.574,364.798,220.788,364.798,184.442z"/>
	<path style="fill:#6AD2EB;" d="M256,119.026c-36.134,0-65.53,29.346-65.53,65.416c0,21.913,10.934,42.263,29.246,54.437
		c3.451,2.292,8.105,1.355,10.398-2.094c2.293-3.45,1.355-8.105-2.094-10.398c-14.121-9.386-22.551-25.066-22.551-41.944
		c0-27.8,22.668-50.416,50.53-50.416s50.53,22.616,50.53,50.416c0,16.878-8.43,32.559-22.551,41.944
		c-3.449,2.293-4.387,6.948-2.094,10.398c1.444,2.172,3.826,3.349,6.253,3.349c1.426,0,2.868-0.406,4.146-1.255
		c18.313-12.174,29.246-32.523,29.246-54.437C321.53,148.372,292.134,119.026,256,119.026z"/>
	<path style="fill:#6AD2EB;" d="M139.632,427.083H242.65c4.143,0,7.5-3.357,7.5-7.5s-3.357-7.5-7.5-7.5H139.632
		c-4.143,0-7.5,3.357-7.5,7.5S135.489,427.083,139.632,427.083z"/>
	<path style="fill:#6AD2EB;" d="M242.649,436.758H139.632c-4.143,0-7.5,3.357-7.5,7.5s3.357,7.5,7.5,7.5H242.65
		c4.143,0,7.5-3.357,7.5-7.5S246.792,436.758,242.649,436.758z"/>
</g>
<g>
</g>
<g>
</g>
<g>
</g>
<g>
</g>
<g>
</g>
<g>
</g>
<g>
</g>
<g>
</g>
<g>
</g>
<g>
</g>
<g>
</g>
<g>
</g>
<g>
</g>
<g>
</g>
<g>
</g>
</svg>
