<?xml version="1.0" encoding="iso-8859-1"?>
<!-- Generator: Adobe Illustrator 19.0.0, SVG Export Plug-In . SVG Version: 6.00 Build 0)  -->
<svg version="1.1" id="Capa_1" xmlns="http://www.w3.org/2000/svg" xmlns:xlink="http://www.w3.org/1999/xlink" x="0px" y="0px"
	 viewBox="0 0 512.004 512.004" style="enable-background:new 0 0 512.004 512.004;" xml:space="preserve">
<path style="fill:#444B66;" d="M235.518,498.896c-4.142,0-7.5-3.358-7.5-7.5v-71.328c0-4.142,3.358-7.5,7.5-7.5s7.5,3.358,7.5,7.5
	v71.328C243.018,495.539,239.66,498.896,235.518,498.896z"/>
<path style="fill:#6E6B87;" d="M371.502,341.505v76.233c0,17.07-60.891,30.905-136,30.905s-136-13.835-136-30.905v-76.233H371.502z"
	/>
<path style="fill:#625F78;" d="M340.593,341.505v95.851c19.312-5.336,30.909-12.169,30.909-19.618v-76.233H340.593z"/>
<ellipse style="fill:#57566B;" cx="235.502" cy="341.5" rx="136" ry="30.905"/>
<path style="fill:#4D4C5E;" d="M235.502,310.6c-5.227,0-10.381,0.069-15.455,0.2c67.832,1.744,120.545,14.825,120.545,30.706
	c0,15.881-52.713,28.962-120.545,30.706c5.073,0.13,10.228,0.2,15.455,0.2c75.111,0,136-13.837,136-30.905
	S310.613,310.6,235.502,310.6z"/>
<path style="fill:#6E6B87;" d="M371.502,217.883v76.233c0,17.07-60.891,30.905-136,30.905s-136-13.835-136-30.905v-76.233H371.502z"
	/>
<path style="fill:#625F78;" d="M340.593,217.883v95.851c19.312-5.336,30.909-12.169,30.909-19.618v-76.233H340.593z"/>
<ellipse style="fill:#57566B;" cx="235.502" cy="217.88" rx="136" ry="30.905"/>
<path style="fill:#4D4C5E;" d="M235.502,186.978c-5.227,0-10.381,0.069-15.455,0.2c67.832,1.744,120.545,14.825,120.545,30.706
	s-52.713,28.962-120.545,30.706c5.073,0.13,10.228,0.2,15.455,0.2c75.111,0,136-13.837,136-30.905S310.613,186.978,235.502,186.978z
	"/>
<path style="fill:#6E6B87;" d="M371.502,94.262v76.233c0,17.07-60.891,30.905-136,30.905s-136-13.835-136-30.905V94.262H371.502z"/>
<path style="fill:#625F78;" d="M340.593,94.262v95.851c19.312-5.336,30.909-12.169,30.909-19.618V94.262H340.593z"/>
<ellipse style="fill:#57566B;" cx="235.502" cy="94.26" rx="136" ry="30.905"/>
<path style="fill:#4D4C5E;" d="M235.502,63.356c-5.227,0-10.381,0.069-15.455,0.2c67.832,1.744,120.545,14.825,120.545,30.706
	s-52.713,28.962-120.545,30.706c5.073,0.13,10.228,0.2,15.455,0.2c75.111,0,136-13.837,136-30.905S310.613,63.356,235.502,63.356z"
	/>
<path style="fill:#444B66;" d="M235.518,101.762c-4.142,0-7.5-3.358-7.5-7.5V20.604c0-4.142,3.358-7.5,7.5-7.5s7.5,3.358,7.5,7.5
	v73.658C243.018,98.404,239.66,101.762,235.518,101.762z"/>
<g>
	<circle style="fill:#EC5569;" cx="235.522" cy="491.4" r="20.604"/>
	<circle style="fill:#EC5569;" cx="235.522" cy="20.604" r="20.604"/>
</g>
<g>
	<circle style="fill:#FAD87C;" cx="143.282" cy="167.15" r="7.726"/>
	<circle style="fill:#FAD87C;" cx="143.352" cy="145" r="7.726"/>
	<circle style="fill:#FAD87C;" cx="143.282" cy="290.06" r="7.726"/>
	<circle style="fill:#FAD87C;" cx="143.352" cy="267.91" r="7.726"/>
	<circle style="fill:#FAD87C;" cx="143.282" cy="412.97" r="7.726"/>
	<circle style="fill:#FAD87C;" cx="143.352" cy="390.82" r="7.726"/>
</g>
<path style="fill:#EC5569;" d="M400.502,336h-136c-6.627,0-12-5.373-12-12V188c0-6.627,5.373-12,12-12h136c6.627,0,12,5.373,12,12
	v136C412.502,330.627,407.129,336,400.502,336z"/>
<path style="fill:#E63950;" d="M400.502,176h-30c6.627,0,12,5.373,12,12v136c0,6.627-5.373,12-12,12h30c6.627,0,12-5.373,12-12V188
	C412.502,181.373,407.129,176,400.502,176z"/>
<path style="fill:#444B66;" d="M353.502,258c-4.143,0-7.5-3.357-7.5-7.5V221c0-7.444-6.056-13.5-13.5-13.5s-13.5,6.056-13.5,13.5
	v29.5c0,4.143-3.357,7.5-7.5,7.5s-7.5-3.357-7.5-7.5V221c0-15.715,12.785-28.5,28.5-28.5s28.5,12.785,28.5,28.5v29.5
	C361.002,254.643,357.645,258,353.502,258z"/>
<path style="fill:#FAD87C;" d="M361.502,300h-58c-3.314,0-6-2.686-6-6v-46c0-3.314,2.686-6,6-6h58c3.314,0,6,2.686,6,6v46
	C367.502,297.314,364.816,300,361.502,300z"/>
<path style="fill:#444B66;" d="M332.502,286.5c-4.143,0-7.5-3.357-7.5-7.5v-13c0-4.143,3.357-7.5,7.5-7.5s7.5,3.357,7.5,7.5v13
	C340.002,283.143,336.645,286.5,332.502,286.5z"/>
<g>
</g>
<g>
</g>
<g>
</g>
<g>
</g>
<g>
</g>
<g>
</g>
<g>
</g>
<g>
</g>
<g>
</g>
<g>
</g>
<g>
</g>
<g>
</g>
<g>
</g>
<g>
</g>
<g>
</g>
</svg>
