<?xml version="1.0" encoding="iso-8859-1"?>
<!-- Generator: Adobe Illustrator 19.0.0, SVG Export Plug-In . SVG Version: 6.00 Build 0)  -->
<svg version="1.1" id="Capa_1" xmlns="http://www.w3.org/2000/svg" xmlns:xlink="http://www.w3.org/1999/xlink" x="0px" y="0px"
	 viewBox="0 0 512 512" style="enable-background:new 0 0 512 512;" xml:space="preserve">
<path style="fill:#CBDAE0;" d="M508,441H4c-2.209,0-4-1.791-4-4V75c0-2.209,1.791-4,4-4h504c2.209,0,4,1.791,4,4v362
	C512,439.209,510.209,441,508,441z"/>
<path style="fill:#A8B5BA;" d="M508,441h-26.905V71H508c2.209,0,4,1.791,4,4v362C512,439.209,510.209,441,508,441z"/>
<path style="fill:#EC5569;" d="M512,122.389H0V75c0-2.209,1.791-4,4-4h504c2.209,0,4,1.791,4,4V122.389z"/>
<path style="fill:#E63950;" d="M512,122.389h-30.905V71H508c2.209,0,4,1.791,4,4V122.389z"/>
<path style="fill:#6E6B87;" d="M150.406,122.389H0V75c0-2.209,1.791-4,4-4h146.406V122.389z"/>
<circle style="fill:#FAD87C;" cx="34.25" cy="97.71" r="7.5"/>
<circle style="fill:#00B7A0;" cx="75.875" cy="97.71" r="7.5"/>
<circle style="fill:#EC5569;" cx="117.5" cy="97.71" r="7.5"/>
<path style="fill:#FAD87C;" d="M252.622,213.205l-80.291,126.577c-1.689,2.663,0.224,6.143,3.378,6.143h160.582
	c3.154,0,5.067-3.479,3.378-6.143l-80.291-126.577C257.807,210.729,254.193,210.729,252.622,213.205z"/>
<g>
	<path style="fill:#444B66;" d="M257.03,303.684c4.143,0,7.5-3.357,7.5-7.5v-40.652c0-4.143-3.357-7.5-7.5-7.5s-7.5,3.357-7.5,7.5
		v40.652C249.53,300.326,252.888,303.684,257.03,303.684z"/>
	<circle style="fill:#444B66;" cx="257.03" cy="319.62" r="7.726"/>
</g>
<g>
	<path style="fill:#6E6B87;" d="M144.225,330.812v32.23c0,7.217-25.368,13.066-56.66,13.066s-56.66-5.849-56.66-13.066v-32.23
		H144.225z"/>
	<path style="fill:#6E6B87;" d="M144.225,272.428v32.23c0,7.217-25.368,13.066-56.66,13.066s-56.66-5.849-56.66-13.066v-32.23
		H144.225z"/>
</g>
<g>
	<ellipse style="fill:#57566B;" cx="87.56" cy="330.81" rx="56.66" ry="13.07"/>
	<ellipse style="fill:#57566B;" cx="87.56" cy="272.43" rx="56.66" ry="13.07"/>
</g>
<path style="fill:#6E6B87;" d="M144.225,214.044v32.23c0,7.217-25.368,13.066-56.66,13.066s-56.66-5.849-56.66-13.066v-32.23
	H144.225z"/>
<ellipse style="fill:#57566B;" cx="87.56" cy="214.04" rx="56.66" ry="13.07"/>
<g>
	<path style="fill:#6E6B87;" d="M481.095,330.812v32.23c0,7.217-25.368,13.066-56.66,13.066s-56.66-5.849-56.66-13.066v-32.23
		H481.095z"/>
	<path style="fill:#6E6B87;" d="M481.095,272.428v32.23c0,7.217-25.368,13.066-56.66,13.066s-56.66-5.849-56.66-13.066v-32.23
		H481.095z"/>
</g>
<g>
	<ellipse style="fill:#57566B;" cx="424.44" cy="330.81" rx="56.66" ry="13.07"/>
	<ellipse style="fill:#57566B;" cx="424.44" cy="272.43" rx="56.66" ry="13.07"/>
</g>
<path style="fill:#6E6B87;" d="M481.095,214.044v32.23c0,7.217-25.368,13.066-56.66,13.066s-56.66-5.849-56.66-13.066v-32.23
	H481.095z"/>
<ellipse style="fill:#57566B;" cx="424.44" cy="214.04" rx="56.66" ry="13.07"/>
<g>
</g>
<g>
</g>
<g>
</g>
<g>
</g>
<g>
</g>
<g>
</g>
<g>
</g>
<g>
</g>
<g>
</g>
<g>
</g>
<g>
</g>
<g>
</g>
<g>
</g>
<g>
</g>
<g>
</g>
</svg>
