<?xml version="1.0" encoding="iso-8859-1"?>
<!-- Generator: Adobe Illustrator 19.0.0, SVG Export Plug-In . SVG Version: 6.00 Build 0)  -->
<svg version="1.1" id="Capa_1" xmlns="http://www.w3.org/2000/svg" xmlns:xlink="http://www.w3.org/1999/xlink" x="0px" y="0px"
	 viewBox="0 0 512.004 512.004" style="enable-background:new 0 0 512.004 512.004;" xml:space="preserve">
<path style="fill:#444B66;" d="M209.518,498.896c-4.142,0-7.5-3.358-7.5-7.5v-71.328c0-4.142,3.358-7.5,7.5-7.5s7.5,3.358,7.5,7.5
	v71.328C217.018,495.539,213.66,498.896,209.518,498.896z"/>
<path style="fill:#6E6B87;" d="M345.502,341.505v76.233c0,17.07-60.891,30.905-136,30.905s-136-13.835-136-30.905v-76.233H345.502z"
	/>
<path style="fill:#625F78;" d="M314.593,341.505v95.851c19.312-5.336,30.909-12.169,30.909-19.618v-76.233H314.593z"/>
<ellipse style="fill:#57566B;" cx="209.502" cy="341.5" rx="136" ry="30.905"/>
<path style="fill:#4D4C5E;" d="M209.502,310.6c-5.227,0-10.381,0.069-15.455,0.2c67.832,1.744,120.545,14.825,120.545,30.706
	c0,15.881-52.713,28.962-120.545,30.706c5.073,0.13,10.228,0.2,15.455,0.2c75.111,0,136-13.837,136-30.905
	S284.613,310.6,209.502,310.6z"/>
<path style="fill:#6E6B87;" d="M345.502,217.883v76.233c0,17.07-60.891,30.905-136,30.905s-136-13.835-136-30.905v-76.233H345.502z"
	/>
<path style="fill:#625F78;" d="M314.593,217.883v95.851c19.312-5.336,30.909-12.169,30.909-19.618v-76.233H314.593z"/>
<ellipse style="fill:#57566B;" cx="209.502" cy="217.88" rx="136" ry="30.905"/>
<path style="fill:#4D4C5E;" d="M209.502,186.978c-5.227,0-10.381,0.069-15.455,0.2c67.832,1.744,120.545,14.825,120.545,30.706
	s-52.713,28.962-120.545,30.706c5.073,0.13,10.228,0.2,15.455,0.2c75.111,0,136-13.837,136-30.905S284.613,186.978,209.502,186.978z
	"/>
<path style="fill:#6E6B87;" d="M345.502,94.262v76.233c0,17.07-60.891,30.905-136,30.905s-136-13.835-136-30.905V94.262H345.502z"/>
<path style="fill:#625F78;" d="M314.593,94.262v95.851c19.312-5.336,30.909-12.169,30.909-19.618V94.262H314.593z"/>
<ellipse style="fill:#57566B;" cx="209.502" cy="94.26" rx="136" ry="30.905"/>
<path style="fill:#4D4C5E;" d="M209.502,63.356c-5.227,0-10.381,0.069-15.455,0.2c67.832,1.744,120.545,14.825,120.545,30.706
	s-52.713,28.962-120.545,30.706c5.073,0.13,10.228,0.2,15.455,0.2c75.111,0,136-13.837,136-30.905S284.613,63.356,209.502,63.356z"
	/>
<path style="fill:#444B66;" d="M209.518,101.762c-4.142,0-7.5-3.358-7.5-7.5V20.604c0-4.142,3.358-7.5,7.5-7.5s7.5,3.358,7.5,7.5
	v73.658C217.018,98.404,213.66,101.762,209.518,101.762z"/>
<g>
	<circle style="fill:#EC5569;" cx="209.522" cy="491.4" r="20.604"/>
	<circle style="fill:#EC5569;" cx="209.522" cy="20.604" r="20.604"/>
</g>
<g>
	<circle style="fill:#FAD87C;" cx="117.282" cy="167.15" r="7.726"/>
	<circle style="fill:#FAD87C;" cx="117.352" cy="145" r="7.726"/>
	<circle style="fill:#FAD87C;" cx="117.282" cy="290.06" r="7.726"/>
	<circle style="fill:#FAD87C;" cx="117.352" cy="267.91" r="7.726"/>
	<circle style="fill:#FAD87C;" cx="117.282" cy="412.97" r="7.726"/>
	<circle style="fill:#FAD87C;" cx="117.352" cy="390.82" r="7.726"/>
</g>
<path style="fill:#6E6B87;" d="M434.11,418.608L434.11,418.608c-5.856,5.856-15.35,5.856-21.206,0l-91.185-91.185l21.206-21.206
	l91.185,91.185C439.966,403.258,439.966,412.752,434.11,418.608z"/>
<circle style="fill:#EC5569;" cx="264.462" cy="248.96" r="109.96"/>
<path style="fill:#CAEEFC;" d="M264.464,328.924c-21.358,0-41.438-8.318-56.541-23.421s-23.42-35.183-23.42-56.541
	c0-21.359,8.318-41.439,23.42-56.542S243.105,169,264.464,169c21.358,0,41.438,8.317,56.542,23.42
	c15.103,15.104,23.421,35.184,23.421,56.542c0,21.357-8.318,41.438-23.421,56.54C305.902,320.605,285.822,328.924,264.464,328.924z"
	/>
<path style="fill:#89CEEA;" d="M321.005,192.42C305.902,177.317,285.822,169,264.464,169c-5.091,0-10.105,0.487-15,1.411
	c15.644,2.954,30.038,10.506,41.542,22.009c15.103,15.104,23.421,35.184,23.421,56.542c0,21.357-8.318,41.438-23.421,56.54
	c-11.503,11.504-25.898,19.057-41.542,22.011c4.895,0.924,9.91,1.411,15,1.411c21.358,0,41.438-8.318,56.542-23.422
	c15.103-15.103,23.421-35.183,23.421-56.54C344.426,227.604,336.108,207.523,321.005,192.42z"/>
<g>
</g>
<g>
</g>
<g>
</g>
<g>
</g>
<g>
</g>
<g>
</g>
<g>
</g>
<g>
</g>
<g>
</g>
<g>
</g>
<g>
</g>
<g>
</g>
<g>
</g>
<g>
</g>
<g>
</g>
</svg>
